{
    "Royalty_and_nobility": {
        "upperBound": 0.15,
        "lowerBound": 0.0
    },
    "Business.2C_economics.2C_and_finance": {
        "upperBound": 0.31,
        "lowerBound": 0.06
    },
    "Law": {
        "upperBound": 0.17,
        "lowerBound": 0.09
    },
    "Art.2C_architecture.2C_and_archaeology": {
        "upperBound": 0.4,
        "lowerBound": 0.1
    },
    "Engineering_and_technology": {
        "upperBound": 0.5,
        "lowerBound": 0.1
    },
    "Health_and_medicine": {
        "upperBound": 0.53,
        "lowerBound": 0.13
    },
    "Biology": {
        "upperBound": 0.75,
        "lowerBound": 0.19
    },
    "Mathematics": {
        "upperBound": 0.34,
        "lowerBound": 0.1
    },
    "Computing": {
        "upperBound": 0.57,
        "lowerBound": 0.17
    },
    "History": {
        "upperBound": 0.28,
        "lowerBound": 0.07
    },
    "Warfare": {
        "upperBound": 0.54,
        "lowerBound": 0.08
    },
    "Physics_and_astronomy": {
        "upperBound": 0.22,
        "lowerBound": 0.1
    },
    "Philosophy_and_psychology": {
        "upperBound": 0.34,
        "lowerBound": 0.16
    },
    "Education": {
        "upperBound": 0.51,
        "lowerBound": 0.15
    },
    "Video_gaming": {
        "upperBound": 0.83,
        "lowerBound": 0.2
    },
    "Politics_and_government": {
        "upperBound": 0.22,
        "lowerBound": 0.08
    },
    "Heraldry.2C_honors.2C_and_vexillology": {
        "upperBound": 0.42,
        "lowerBound": 0.15
    },
    "Meteorology": {
        "upperBound": 0.89,
        "lowerBound": 0.12
    },
    "Culture_and_society": {
        "upperBound": 0.55,
        "lowerBound": 0.16
    },
    "Chemistry_and_mineralogy": {
        "upperBound": 0.54,
        "lowerBound": 0.07
    },
    "Language_and_linguistics": {
        "upperBound": 0.47,
        "lowerBound": 0.2
    },
    "Media": {
        "upperBound": 0.47,
        "lowerBound": 0.16
    },
    "Religion.2C_mysticism_and_mythology": {
        "upperBound": 0.2,
        "lowerBound": 0.06
    },
    "Food_and_drink": {
        "upperBound": 0.29,
        "lowerBound": 0.1
    },
    "Geography_and_places": {
        "upperBound": 0.61,
        "lowerBound": 0.2
    },
    "Music": {
        "upperBound": 0.69,
        "lowerBound": 0.25
    },
    "Sport_and_recreation": {
        "upperBound": 0.54,
        "lowerBound": 0.15
    },
    "Geology_and_geophysics": {
        "upperBound": 0.4,
        "lowerBound": 0.08
    },
    "Transport": {
        "upperBound": 0.47,
        "lowerBound": 0.1
    },
    "Literature_and_theatre": {
        "upperBound": 0.37,
        "lowerBound": 0.12
    }
}
