 http://dbpedia.org/property/appearance 0.02564102564102564
 http://dbpedia.org/property/imageName 0.02564102564102564
is http://dbpedia.org/property/fields 0.02564102564102564
 http://dbpedia.org/property/colwidth 0.07692307692307693
 http://dbpedia.org/property/system 0.05128205128205128
 http://dbpedia.org/property/numberOfIonizationEnergies 0.02564102564102564
 http://dbpedia.org/property/direction 0.07692307692307693
 http://dbpedia.org/ontology/abstract 1.0
 http://dbpedia.org/property/portal 0.3076923076923077
 http://dbpedia.org/property/triplePointK 0.02564102564102564
 http://dbpedia.org/property/country 0.02564102564102564
is http://dbpedia.org/ontology/product 0.3076923076923077
 http://dbpedia.org/property/onlinebooks 0.05128205128205128
is http://dbpedia.org/property/jewel 0.02564102564102564
is http://dbpedia.org/property/opt2n 0.02564102564102564
 http://dbpedia.org/property/number 0.05128205128205128
is http://dbpedia.org/property/fuelSource 0.02564102564102564
 http://dbpedia.org/property/heatCapacity 0.02564102564102564
 http://dbpedia.org/property/end 0.02564102564102564
is http://dbpedia.org/property/product 0.02564102564102564
 http://dbpedia.org/property/health 0.02564102564102564
 http://dbpedia.org/property/footer 0.02564102564102564
 http://dbpedia.org/property/density 0.02564102564102564
 http://dbpedia.org/property/imagename 0.1282051282051282
 http://dbpedia.org/property/assign 0.02564102564102564
 http://dbpedia.org/property/image 0.10256410256410256
 http://dbpedia.org/property/habit 0.05128205128205128
is http://dbpedia.org/ontology/associatedBand 0.05128205128205128
 http://dbpedia.org/property/left 0.02564102564102564
 http://dbpedia.org/property/reactivity 0.02564102564102564
is http://dbpedia.org/property/symbol 0.02564102564102564
is http://dbpedia.org/property/category 0.05128205128205128
 http://dbpedia.org/property/relief 0.02564102564102564
 http://dbpedia.org/property/boilingPointK 0.02564102564102564
 http://dbpedia.org/property/imagefilel 0.07692307692307693
 http://www.w3.org/2000/01/rdf-schema#comment 1.0
 http://dbpedia.org/property/boilingPointF 0.02564102564102564
 http://dbpedia.org/property/imagefiler 0.07692307692307693
 http://dbpedia.org/property/vaporPressure10K 0.02564102564102564
 http://dbpedia.org/property/boilingPointC 0.02564102564102564
is http://dbpedia.org/property/shipNamesake 0.02564102564102564
 http://dbpedia.org/property/period 0.02564102564102564
 http://dbpedia.org/property/vanDerWaalsRadius 0.02564102564102564
 http://dbpedia.org/property/imageName2Comment 0.02564102564102564
 http://dbpedia.org/property/date 0.02564102564102564
 http://dbpedia.org/property/lonDir 0.02564102564102564
 http://dbpedia.org/property/flammability 0.02564102564102564
 http://dbpedia.org/property/tenacity 0.02564102564102564
 http://dbpedia.org/property/namedDate 0.02564102564102564
 http://dbpedia.org/property/align 0.07692307692307693
is http://dbpedia.org/property/material 0.05128205128205128
 http://dbpedia.org/property/right 0.02564102564102564
 http://dbpedia.org/property/wikt 0.2564102564102564
is http://dbpedia.org/property/alternativeNames 0.02564102564102564
 http://dbpedia.org/property/luster 0.05128205128205128
 http://www.w3.org/2002/07/owl#differentFrom 0.10256410256410256
 http://dbpedia.org/property/status 0.02564102564102564
is http://dbpedia.org/property/naturalResources 0.07692307692307693
 http://dbpedia.org/property/electronConfiguration 0.02564102564102564
 http://dbpedia.org/property/baseAlt 0.02564102564102564
 http://dbpedia.org/property/name 0.07692307692307693
 http://dbpedia.org/property/description 0.02564102564102564
is http://dbpedia.org/property/atmosphereComposition 0.07692307692307693
 http://dbpedia.org/property/caption 0.20512820512820512
 http://www.w3.org/ns/prov#wasDerivedFrom 1.0
 http://dbpedia.org/property/electronegativity 0.02564102564102564
 http://dbpedia.org/ontology/iupacName 0.10256410256410256
is http://dbpedia.org/property/chassis 0.02564102564102564
is http://dbpedia.org/property/knownFor 0.2564102564102564
 http://dbpedia.org/property/width 0.07692307692307693
is http://dbpedia.org/ontology/nonFictionSubject 0.02564102564102564
 http://dbpedia.org/property/refractive 0.05128205128205128
is http://www.w3.org/2000/01/rdf-schema#seeAlso 0.15384615384615385
is http://dbpedia.org/property/stage2fuel 0.02564102564102564
 http://dbpedia.org/property/lonSec 0.02564102564102564
 http://dbpedia.org/property/lonMin 0.02564102564102564
is http://dbpedia.org/ontology/primaryFuelType 0.02564102564102564
is http://dbpedia.org/property/materials 0.02564102564102564
 http://dbpedia.org/property/discoveryDate 0.02564102564102564
 http://dbpedia.org/property/fracture 0.05128205128205128
 http://dbpedia.org/property/lcheading 0.05128205128205128
 http://dbpedia.org/property/formula 0.05128205128205128
 http://dbpedia.org/property/phase 0.02564102564102564
 http://dbpedia.org/property/species 0.02564102564102564
 http://dbpedia.org/property/pleochroism 0.05128205128205128
 http://purl.org/dc/terms/subject 1.0
is http://dbpedia.org/ontology/associatedMusicalArtist 0.05128205128205128
 http://dbpedia.org/property/s 0.05128205128205128
 http://dbpedia.org/property/p 0.07692307692307693
 http://dbpedia.org/property/q 0.02564102564102564
 http://dbpedia.org/property/v 0.1794871794871795
 http://dbpedia.org/property/w 0.02564102564102564
 http://dbpedia.org/property/imagefile 0.15384615384615385
is http://dbpedia.org/property/deviceType 0.02564102564102564
 http://dbpedia.org/property/u 0.02564102564102564
is http://dbpedia.org/property/use 0.02564102564102564
 http://dbpedia.org/property/magneticOrdering 0.02564102564102564
 http://dbpedia.org/property/n 0.05128205128205128
 http://dbpedia.org/property/b 0.1794871794871795
 http://dbpedia.org/property/baseWidth 0.02564102564102564
 http://dbpedia.org/property/e 0.02564102564102564
 http://dbpedia.org/property/diaphaneity 0.02564102564102564
 http://dbpedia.org/property/block 0.02564102564102564
 http://dbpedia.org/property/wordnet_type 0.02564102564102564
 http://dbpedia.org/property/boxbgcolor 0.02564102564102564
 http://dbpedia.org/property/mohs 0.05128205128205128
is http://dbpedia.org/ontology/channel 0.02564102564102564
 http://dbpedia.org/property/densityGplstp 0.02564102564102564
 http://dbpedia.org/ontology/wikiPageRevisionID 1.0
 http://dbpedia.org/property/verifiedfields 0.10256410256410256
is http://dbpedia.org/property/exportGoods 0.02564102564102564
 http://dbpedia.org/property/lonDeg 0.02564102564102564
is http://dbpedia.org/property/gemStones 0.02564102564102564
 http://dbpedia.org/property/value 0.02564102564102564
 http://dbpedia.org/property/vSearch 0.1794871794871795
is http://dbpedia.org/property/compositionSecondary 0.07692307692307693
is http://dbpedia.org/property/subject 0.02564102564102564
 http://dbpedia.org/property/x 0.02564102564102564
 http://dbpedia.org/property/y 0.02564102564102564
 http://dbpedia.org/property/vaporPressure1K 0.02564102564102564
 http://dbpedia.org/property/othernames 0.1282051282051282
 http://www.w3.org/1999/02/22-rdf-syntax-ns#type 0.6923076923076923
is http://dbpedia.org/ontology/wikiPageRedirects 1.0
 http://dbpedia.org/property/latDeg 0.02564102564102564
 http://xmlns.com/foaf/0.1/name 0.05128205128205128
 http://xmlns.com/foaf/0.1/homepage 0.02564102564102564
is http://dbpedia.org/ontology/knownFor 0.5384615384615384
 http://dbpedia.org/property/expiry 0.02564102564102564
is http://dbpedia.org/property/engine 0.02564102564102564
 http://dbpedia.org/property/below 0.02564102564102564
 http://dbpedia.org/property/float 0.07692307692307693
is http://dbpedia.org/ontology/industry 0.1282051282051282
is http://dbpedia.org/ontology/structuralSystem 0.02564102564102564
is http://dbpedia.org/ontology/wikiPageDisambiguates 0.717948717948718
 http://dbpedia.org/property/ionizationEnergy 0.02564102564102564
 http://dbpedia.org/property/meltingPointC 0.02564102564102564
 http://dbpedia.org/ontology/wikiPageExternalLink 0.9230769230769231
 http://dbpedia.org/property/watchedfields 0.1282051282051282
is http://dbpedia.org/property/primaryFuel 0.02564102564102564
 http://dbpedia.org/property/melt 0.02564102564102564
 http://dbpedia.org/property/verifiedrevid 0.15384615384615385
 http://dbpedia.org/property/book 0.3333333333333333
 http://dbpedia.org/property/criticalPointK 0.02564102564102564
 http://dbpedia.org/property/crystalStructure 0.02564102564102564
 http://dbpedia.org/property/speedOfSound 0.02564102564102564
 http://dbpedia.org/property/gdate 0.02564102564102564
is http://dbpedia.org/property/occupation 0.02564102564102564
 http://dbpedia.org/property/commons 0.2564102564102564
 http://dbpedia.org/property/wiktSearch 0.20512820512820512
 http://dbpedia.org/property/reason 0.02564102564102564
 http://dbpedia.org/property/other 0.02564102564102564
is http://dbpedia.org/property/filling 0.02564102564102564
 http://dbpedia.org/property/gravity 0.02564102564102564
 http://dbpedia.org/property/group 0.05128205128205128
 http://dbpedia.org/property/discoveredBy 0.02564102564102564
 http://dbpedia.org/property/nSearch 0.02564102564102564
is http://dbpedia.org/property/type 0.02564102564102564
 http://dbpedia.org/property/crystalSystem 0.02564102564102564
 http://dbpedia.org/property/dispersion 0.02564102564102564
 http://dbpedia.org/property/sSearch 0.02564102564102564
 http://dbpedia.org/property/base 0.02564102564102564
 http://dbpedia.org/property/imagenamer 0.02564102564102564
 http://dbpedia.org/property/heatFusion 0.02564102564102564
 http://dbpedia.org/property/opticalprop 0.05128205128205128
 http://dbpedia.org/property/casNumber 0.02564102564102564
 http://dbpedia.org/property/vaporPressure100K 0.02564102564102564
 http://dbpedia.org/property/triplePointKpa 0.02564102564102564
is http://dbpedia.org/property/associatedActs 0.02564102564102564
 http://dbpedia.org/property/invent 0.02564102564102564
 http://dbpedia.org/property/meltingPointF 0.02564102564102564
 http://dbpedia.org/property/small 0.02564102564102564
 http://dbpedia.org/property/floatCaption 0.02564102564102564
 http://dbpedia.org/property/meltingPointK 0.02564102564102564
 http://dbpedia.org/property/imagenamel 0.02564102564102564
is http://dbpedia.org/property/right 0.02564102564102564
 http://dbpedia.org/property/iupacname 0.10256410256410256
 http://www.w3.org/2000/01/rdf-schema#seeAlso 0.358974358974359
 http://www.w3.org/2002/07/owl#sameAs 1.0
 http://xmlns.com/foaf/0.1/isPrimaryTopicOf 1.0
is http://dbpedia.org/ontology/field 0.05128205128205128
 http://dbpedia.org/property/filename 0.02564102564102564
is http://dbpedia.org/property/products 0.2564102564102564
 http://dbpedia.org/property/above 0.02564102564102564
 http://dbpedia.org/property/thermalConductivity 0.02564102564102564
 http://dbpedia.org/property/format 0.02564102564102564
 http://dbpedia.org/property/symbol 0.02564102564102564
 http://dbpedia.org/ontology/thumbnail 0.6923076923076923
 http://dbpedia.org/property/birefringence 0.02564102564102564
 http://dbpedia.org/property/imageSize 0.02564102564102564
is http://dbpedia.org/property/mascot 0.02564102564102564
 http://dbpedia.org/property/electronsPerShell 0.02564102564102564
 http://dbpedia.org/property/cleavage 0.05128205128205128
 http://dbpedia.org/property/namedBy 0.02564102564102564
 http://dbpedia.org/ontology/soundRecording 0.02564102564102564
 http://dbpedia.org/property/2v 0.02564102564102564
 http://dbpedia.org/ontology/wikiPageID 1.0
 http://dbpedia.org/property/criticalPointMpa 0.02564102564102564
 http://dbpedia.org/property/series 0.02564102564102564
 http://www.w3.org/2000/01/rdf-schema#label 1.0
is http://dbpedia.org/property/contaminants 0.02564102564102564
 http://dbpedia.org/property/floatWidth 0.02564102564102564
 http://dbpedia.org/property/strunz 0.02564102564102564
is http://dbpedia.org/property/channel 0.02564102564102564
 http://dbpedia.org/property/hasPhotoCollection 1.0
 http://dbpedia.org/property/latSec 0.02564102564102564
is http://dbpedia.org/property/title 0.02564102564102564
 http://dbpedia.org/property/latMin 0.02564102564102564
 http://dbpedia.org/property/polish 0.02564102564102564
 http://xmlns.com/foaf/0.1/depiction 0.6923076923076923
 http://dbpedia.org/property/imagesize 0.1282051282051282
is http://dbpedia.org/property/industries 0.02564102564102564
 http://dbpedia.org/property/label 0.10256410256410256
is http://dbpedia.org/property/armour 0.02564102564102564
 http://dbpedia.org/property/bSearch 0.07692307692307693
is http://xmlns.com/foaf/0.1/primaryTopic 1.0
is http://dbpedia.org/property/coolant 0.02564102564102564
 http://dbpedia.org/property/video 0.02564102564102564
 http://dbpedia.org/property/densityGpcm3bp 0.02564102564102564
 http://dbpedia.org/property/systematicname 0.02564102564102564
 http://dbpedia.org/property/title 0.07692307692307693
 http://dbpedia.org/property/twinning 0.05128205128205128
 http://dbpedia.org/property/by 0.05128205128205128
 http://dbpedia.org/property/imageNameComment 0.02564102564102564
is http://dbpedia.org/ontology/occupation 0.02564102564102564
 http://dbpedia.org/property/heatVaporization 0.02564102564102564
is http://dbpedia.org/property/class 0.02564102564102564
is http://www.w3.org/2002/07/owl#differentFrom 0.20512820512820512
is http://dbpedia.org/property/label 0.07692307692307693
 http://dbpedia.org/property/color 0.05128205128205128
 http://dbpedia.org/property/streak 0.02564102564102564
 http://dbpedia.org/property/alt 0.1282051282051282
is http://dbpedia.org/property/industry 0.10256410256410256
is http://dbpedia.org/property/caption 0.15384615384615385
 http://dbpedia.org/property/category 0.05128205128205128
 http://dbpedia.org/property/oxidationStates 0.02564102564102564
is http://dbpedia.org/property/gems 0.02564102564102564
 http://dbpedia.org/property/covalentRadius 0.02564102564102564
 http://dbpedia.org/property/latDir 0.02564102564102564
 http://dbpedia.org/property/atomicMass 0.02564102564102564
is http://dbpedia.org/property/prop1text 0.02564102564102564
