 http://dbpedia.org/property/prizes 0.012987012987012988
 http://dbpedia.org/property/weight1Type 0.012987012987012988
 http://dbpedia.org/property/colwidth 0.06493506493506493
 http://dbpedia.org/ontology/state 0.012987012987012988
 http://dbpedia.org/property/direction 0.06493506493506493
 http://dbpedia.org/property/subject 0.012987012987012988
 http://dbpedia.org/ontology/movement 0.012987012987012988
 http://dbpedia.org/property/footerAlign 0.012987012987012988
 http://dbpedia.org/property/viaf 0.16883116883116883
 http://dbpedia.org/property/number 0.012987012987012988
is http://dbpedia.org/ontology/literaryGenre 0.012987012987012988
 http://dbpedia.org/ontology/populationPlace 0.012987012987012988
 http://dbpedia.org/property/monuments 0.012987012987012988
 http://dbpedia.org/property/voy 0.025974025974025976
is http://dbpedia.org/property/usedBy 0.012987012987012988
is http://dbpedia.org/ontology/award 0.012987012987012988
 http://dbpedia.org/property/latNs 0.012987012987012988
 http://dbpedia.org/property/footer 0.025974025974025976
 http://dbpedia.org/property/assign 0.012987012987012988
is http://dbpedia.org/ontology/ethnicGroup 0.025974025974025976
is http://dbpedia.org/property/after 0.012987012987012988
is http://dbpedia.org/property/category 0.012987012987012988
 http://dbpedia.org/property/locationTown 0.012987012987012988
 http://dbpedia.org/property/bgcolor 0.1038961038961039
 http://dbpedia.org/property/client 0.012987012987012988
is http://www.w3.org/2004/02/skos/core#subject 0.012987012987012988
 http://dbpedia.org/property/shortDescription 0.4025974025974026
is http://dbpedia.org/property/shipNamesake 0.012987012987012988
 http://dbpedia.org/property/reportedPropertyDamage 0.012987012987012988
 http://dbpedia.org/property/education 0.025974025974025976
 http://dbpedia.org/property/members 0.025974025974025976
is http://dbpedia.org/property/dedicatedTo 0.012987012987012988
is http://dbpedia.org/ontology/type 0.012987012987012988
 http://dbpedia.org/property/align 0.22077922077922077
is http://dbpedia.org/property/name 0.05194805194805195
is http://dbpedia.org/property/convictionPenalty 0.012987012987012988
 http://dbpedia.org/ontology/elevation 0.012987012987012988
 http://dbpedia.org/property/author 0.025974025974025976
 http://dbpedia.org/ontology/formationYear 0.012987012987012988
 http://dbpedia.org/property/status 0.012987012987012988
 http://dbpedia.org/property/sign 0.012987012987012988
 http://dbpedia.org/property/parents 0.09090909090909091
 http://dbpedia.org/property/latM 0.012987012987012988
 http://dbpedia.org/property/religion 0.03896103896103896
 http://dbpedia.org/property/weightRound 0.012987012987012988
 http://dbpedia.org/ontology/birthYear 0.37662337662337664
 http://dbpedia.org/property/name 0.5454545454545454
is http://dbpedia.org/ontology/deathCause 0.012987012987012988
 http://dbpedia.org/property/description 0.012987012987012988
 http://dbpedia.org/property/founder 0.025974025974025976
 http://dbpedia.org/property/headerBackground 0.012987012987012988
 http://dbpedia.org/property/latS 0.012987012987012988
 http://dbpedia.org/property/caption 0.33766233766233766
 http://dbpedia.org/ontology/deathDate 0.35064935064935066
is http://dbpedia.org/ontology/founder 0.012987012987012988
 http://dbpedia.org/property/bordercolor 0.012987012987012988
 http://dbpedia.org/property/founded 0.012987012987012988
 http://dbpedia.org/property/almaMater 0.06493506493506493
 http://dbpedia.org/ontology/synonym 0.012987012987012988
 http://dbpedia.org/ontology/buildingEndDate 0.012987012987012988
is http://www.w3.org/2000/01/rdf-schema#seeAlso 0.12987012987012986
 http://dbpedia.org/property/people 0.012987012987012988
 http://xmlns.com/foaf/0.1/givenName 0.38961038961038963
 http://dbpedia.org/property/gnd 0.012987012987012988
is http://dbpedia.org/property/founder 0.03896103896103896
 http://dbpedia.org/ontology/totalPopulation 0.012987012987012988
 http://dbpedia.org/property/bodyDiscovered 0.012987012987012988
 http://dbpedia.org/property/langs 0.012987012987012988
is http://dbpedia.org/property/ideology 0.012987012987012988
 http://dbpedia.org/property/species 0.025974025974025976
 http://dbpedia.org/property/latD 0.012987012987012988
 http://dbpedia.org/property/footerBackground 0.012987012987012988
 http://dbpedia.org/ontology/lccnId 0.15584415584415584
 http://purl.org/dc/terms/subject 0.974025974025974
 http://dbpedia.org/ontology/oclc 0.012987012987012988
 http://dbpedia.org/property/widthType 0.012987012987012988
 http://dbpedia.org/property/oclc 0.012987012987012988
is http://dbpedia.org/property/ethnicGroups 0.012987012987012988
 http://dbpedia.org/ontology/wikiPageRedirects 0.012987012987012988
 http://dbpedia.org/property/popplace 0.012987012987012988
 http://dbpedia.org/property/conviction 0.025974025974025976
is http://dbpedia.org/ontology/related 0.012987012987012988
 http://dbpedia.org/property/outcome 0.012987012987012988
 http://dbpedia.org/property/formation 0.012987012987012988
 http://dbpedia.org/property/birthDate 0.11688311688311688
 http://dbpedia.org/property/team 0.012987012987012988
 http://dbpedia.org/property/poptime 0.012987012987012988
 http://dbpedia.org/property/occurrenceType 0.012987012987012988
 http://dbpedia.org/property/signature 0.03896103896103896
 http://dbpedia.org/property/elevationImperial 0.012987012987012988
 http://dbpedia.org/property/imageCaption 0.025974025974025976
is http://dbpedia.org/property/combatant 0.012987012987012988
 http://dbpedia.org/ontology/employer 0.025974025974025976
is http://dbpedia.org/ontology/influencedBy 0.025974025974025976
 http://dbpedia.org/property/weightImperial 0.012987012987012988
is http://dbpedia.org/property/before 0.012987012987012988
is http://dbpedia.org/property/subject 0.06493506493506493
 http://dbpedia.org/property/mediaType 0.012987012987012988
 http://dbpedia.org/property/pages 0.012987012987012988
 http://dbpedia.org/property/homepage 0.012987012987012988
is http://dbpedia.org/ontology/author 0.025974025974025976
 http://dbpedia.org/property/knownFor 0.16883116883116883
is http://dbpedia.org/ontology/wikiPageRedirects 0.922077922077922
 http://xmlns.com/foaf/0.1/homepage 0.15584415584415584
is http://dbpedia.org/ontology/knownFor 0.06493506493506493
 http://dbpedia.org/property/introducedBy 0.012987012987012988
 http://dbpedia.org/ontology/deathPlace 0.2727272727272727
is http://dbpedia.org/ontology/ethnicity 0.012987012987012988
 http://dbpedia.org/property/destination 0.012987012987012988
 http://dbpedia.org/property/birthname 0.012987012987012988
is http://dbpedia.org/property/affiliation 0.012987012987012988
 http://dbpedia.org/property/spouse 0.12987012987012986
 http://dbpedia.org/ontology/architect 0.012987012987012988
 http://dbpedia.org/ontology/wikiPageExternalLink 0.8051948051948052
 http://dbpedia.org/property/influences 0.025974025974025976
is http://dbpedia.org/property/demographics1Info 0.012987012987012988
is http://dbpedia.org/property/field 0.012987012987012988
 http://dbpedia.org/property/quoted 0.06493506493506493
is http://dbpedia.org/ontology/genre 0.012987012987012988
 http://dbpedia.org/ontology/birthDate 0.37662337662337664
 http://dbpedia.org/property/isbn 0.012987012987012988
 http://dbpedia.org/property/leaderName 0.012987012987012988
 http://dbpedia.org/property/gdate 0.012987012987012988
 http://dbpedia.org/ontology/nonFictionSubject 0.012987012987012988
is http://dbpedia.org/property/occupation 0.012987012987012988
 http://dbpedia.org/property/commons 0.025974025974025976
 http://dbpedia.org/ontology/birthPlace 0.33766233766233766
 http://dbpedia.org/property/mapLocator 0.012987012987012988
 http://dbpedia.org/property/pridate 0.012987012987012988
 http://dbpedia.org/property/place 0.012987012987012988
 http://dbpedia.org/property/rels 0.012987012987012988
is http://dbpedia.org/property/type 0.025974025974025976
 http://dbpedia.org/property/alias 0.025974025974025976
 http://dbpedia.org/property/deathPlace 0.2077922077922078
 http://dbpedia.org/property/dissolvedDate 0.012987012987012988
 http://dbpedia.org/property/time 0.012987012987012988
is http://dbpedia.org/property/basedOn 0.012987012987012988
 http://dbpedia.org/property/relatedC 0.012987012987012988
 http://dbpedia.org/ontology/motto 0.012987012987012988
is http://dbpedia.org/ontology/significantBuilding 0.012987012987012988
is http://dbpedia.org/property/meansOfMartyrdom 0.012987012987012988
 http://dbpedia.org/ontology/influencedBy 0.025974025974025976
 http://dbpedia.org/ontology/city 0.012987012987012988
is http://dbpedia.org/property/timezoneDst 0.012987012987012988
 http://dbpedia.org/property/invent 0.012987012987012988
 http://dbpedia.org/property/motive 0.012987012987012988
 http://dbpedia.org/property/longTitle 0.012987012987012988
 http://dbpedia.org/property/years 0.012987012987012988
 http://dbpedia.org/property/publisher 0.025974025974025976
is http://dbpedia.org/property/children 0.012987012987012988
is http://dbpedia.org/ontology/spouse 0.012987012987012988
 http://dbpedia.org/property/awardFor 0.012987012987012988
 http://www.w3.org/2003/01/geo/wgs84_pos#lat 0.012987012987012988
 http://www.w3.org/2002/07/owl#sameAs 0.987012987012987
 http://dbpedia.org/property/notablework 0.012987012987012988
 http://dbpedia.org/property/honorificSuffix 0.012987012987012988
 http://dbpedia.org/property/placeOfDeath 0.2727272727272727
is http://dbpedia.org/ontology/field 0.012987012987012988
 http://dbpedia.org/property/criminalCharge 0.012987012987012988
 http://dbpedia.org/ontology/mediaType 0.012987012987012988
 http://dbpedia.org/property/format 0.012987012987012988
 http://dbpedia.org/property/focus 0.012987012987012988
 http://dbpedia.org/property/completionDate 0.012987012987012988
 http://dbpedia.org/ontology/thumbnail 0.8311688311688312
 http://dbpedia.org/ontology/occupation 0.14285714285714285
 http://dbpedia.org/property/longD 0.012987012987012988
 http://dbpedia.org/property/imageSize 0.11688311688311688
 http://dbpedia.org/property/authorType 0.012987012987012988
 http://dbpedia.org/property/reference 0.012987012987012988
 http://dbpedia.org/ontology/numberOfPages 0.012987012987012988
 http://dbpedia.org/property/longM 0.012987012987012988
 http://dbpedia.org/property/longS 0.012987012987012988
is http://dbpedia.org/property/influences 0.012987012987012988
 http://dbpedia.org/ontology/material 0.012987012987012988
 http://dbpedia.org/property/otherNames 0.07792207792207792
 http://dbpedia.org/property/introduced 0.012987012987012988
 http://dbpedia.org/ontology/soundRecording 0.012987012987012988
 http://dbpedia.org/ontology/wikiPageID 0.987012987012987
is http://dbpedia.org/property/related 0.025974025974025976
 http://dbpedia.org/property/2y 0.012987012987012988
 http://dbpedia.org/property/field 0.012987012987012988
 http://dbpedia.org/property/dateOfBirth 0.37662337662337664
 http://dbpedia.org/property/2p 0.012987012987012988
 http://dbpedia.org/ontology/language 0.012987012987012988
is http://dbpedia.org/property/genre 0.012987012987012988
 http://dbpedia.org/ontology/architecturalStyle 0.012987012987012988
is http://dbpedia.org/property/author 0.025974025974025976
 http://dbpedia.org/property/hasPhotoCollection 0.922077922077922
 http://dbpedia.org/property/fdate 0.012987012987012988
 http://dbpedia.org/property/1y 0.012987012987012988
is http://dbpedia.org/property/spouse 0.012987012987012988
 http://dbpedia.org/ontology/leaderFunction 0.012987012987012988
 http://dbpedia.org/property/imagesize 0.012987012987012988
 http://dbpedia.org/ontology/weight 0.012987012987012988
 http://dbpedia.org/property/2a 0.012987012987012988
 http://dbpedia.org/property/locationCountry 0.012987012987012988
 http://dbpedia.org/property/titleFnt 0.012987012987012988
is http://dbpedia.org/property/constituencyMp 0.012987012987012988
 http://dbpedia.org/property/class 0.012987012987012988
 http://dbpedia.org/property/fatalities 0.012987012987012988
 http://dbpedia.org/property/charges 0.012987012987012988
 http://dbpedia.org/property/motto 0.012987012987012988
 http://dbpedia.org/property/workplaces 0.025974025974025976
is http://xmlns.com/foaf/0.1/primaryTopic 0.987012987012987
 http://dbpedia.org/property/parliament/congress/senateItWasPassedIn 0.012987012987012988
 http://dbpedia.org/property/1p 0.012987012987012988
 http://dbpedia.org/property/1a 0.012987012987012988
is http://dbpedia.org/property/doctoralStudents 0.012987012987012988
 http://dbpedia.org/property/injuries 0.012987012987012988
is http://dbpedia.org/property/opponents 0.012987012987012988
 http://dbpedia.org/property/salign 0.11688311688311688
is http://dbpedia.org/property/previousEditor 0.012987012987012988
is http://dbpedia.org/ontology/occupation 0.012987012987012988
is http://dbpedia.org/property/recognitionOfRelationships 0.012987012987012988
 http://dbpedia.org/property/structuralEngineer 0.012987012987012988
 http://dbpedia.org/ontology/field 0.03896103896103896
 http://dbpedia.org/property/freeType 0.012987012987012988
is http://dbpedia.org/property/leaderName 0.025974025974025976
 http://dbpedia.org/ontology/child 0.012987012987012988
is http://dbpedia.org/ontology/timeZone 0.012987012987012988
is http://dbpedia.org/ontology/child 0.025974025974025976
 http://dbpedia.org/property/establishedType 0.012987012987012988
 http://dbpedia.org/property/site 0.012987012987012988
 http://dbpedia.org/property/type 0.05194805194805195
 http://dbpedia.org/property/heightRound 0.012987012987012988
 http://dbpedia.org/property/category 0.012987012987012988
 http://dbpedia.org/property/birthName 0.16883116883116883
 http://dbpedia.org/property/state 0.012987012987012988
 http://dbpedia.org/property/imageName 0.025974025974025976
 http://dbpedia.org/property/taxId 0.012987012987012988
 http://dbpedia.org/property/material 0.012987012987012988
 http://dbpedia.org/property/id 0.06493506493506493
is http://dbpedia.org/property/timezone 0.012987012987012988
 http://dbpedia.org/property/participants 0.012987012987012988
 http://dbpedia.org/property/freeLabel 0.012987012987012988
 http://dbpedia.org/property/pubDate 0.012987012987012988
 http://dbpedia.org/ontology/abstract 0.961038961038961
 http://dbpedia.org/property/country 0.09090909090909091
 http://dbpedia.org/property/areaServed 0.012987012987012988
 http://dbpedia.org/property/convictionPenalty 0.03896103896103896
 http://dbpedia.org/property/onlinebooks 0.012987012987012988
 http://dbpedia.org/property/workInstitution 0.012987012987012988
 http://dbpedia.org/property/lccn 0.15584415584415584
 http://dbpedia.org/property/fDate 0.025974025974025976
 http://dbpedia.org/property/numMembers 0.012987012987012988
 http://dbpedia.org/ontology/author 0.012987012987012988
 http://dbpedia.org/property/size 0.012987012987012988
 http://dbpedia.org/property/reportedInjuries 0.012987012987012988
 http://dbpedia.org/property/image 0.1038961038961039
 http://purl.org/dc/elements/1.1/description 0.4025974025974026
 http://dbpedia.org/ontology/birthName 0.15584415584415584
 http://dbpedia.org/property/datepassed 0.012987012987012988
 http://dbpedia.org/property/origin 0.012987012987012988
 http://dbpedia.org/property/cost 0.012987012987012988
 http://dbpedia.org/property/qalign 0.03896103896103896
 http://www.w3.org/2000/01/rdf-schema#comment 0.961038961038961
 http://dbpedia.org/property/occupation 0.16883116883116883
 http://dbpedia.org/property/criminalStatus 0.012987012987012988
 http://dbpedia.org/property/alternativeNames 0.18181818181818182
 http://dbpedia.org/property/data 0.025974025974025976
is http://dbpedia.org/ontology/influenced 0.025974025974025976
 http://dbpedia.org/property/date 0.03896103896103896
is http://dbpedia.org/property/extraColumn 0.012987012987012988
is http://dbpedia.org/property/influenced 0.025974025974025976
is http://dbpedia.org/ontology/person 0.025974025974025976
 http://dbpedia.org/property/border 0.025974025974025976
is http://dbpedia.org/ontology/region 0.012987012987012988
is http://dbpedia.org/property/landmark 0.012987012987012988
 http://dbpedia.org/ontology/personFunction 0.012987012987012988
 http://dbpedia.org/property/fields 0.025974025974025976
 http://dbpedia.org/property/wikt 0.025974025974025976
 http://dbpedia.org/property/notableWorks 0.025974025974025976
 http://dbpedia.org/property/dateSigned 0.012987012987012988
 http://www.w3.org/2002/07/owl#differentFrom 0.012987012987012988
 http://dbpedia.org/ontology/individualisedGnd 0.012987012987012988
 http://dbpedia.org/property/movement 0.012987012987012988
 http://dbpedia.org/property/header 0.012987012987012988
is http://dbpedia.org/property/basis 0.012987012987012988
 http://dbpedia.org/ontology/party 0.012987012987012988
 http://www.w3.org/ns/prov#wasDerivedFrom 0.987012987012987
 http://dbpedia.org/property/aircraftType 0.012987012987012988
 http://dbpedia.org/property/passengers 0.012987012987012988
is http://dbpedia.org/ontology/mediaType 0.012987012987012988
 http://dbpedia.org/property/style 0.025974025974025976
is http://dbpedia.org/property/cause 0.012987012987012988
 http://www.w3.org/2003/01/geo/wgs84_pos#long 0.012987012987012988
is http://dbpedia.org/property/knownFor 0.012987012987012988
 http://dbpedia.org/property/width 0.2727272727272727
is http://dbpedia.org/ontology/nonFictionSubject 0.05194805194805195
 http://dbpedia.org/ontology/bodyDiscovered 0.012987012987012988
 http://dbpedia.org/property/architect 0.012987012987012988
 http://dbpedia.org/property/fontsize 0.03896103896103896
is http://dbpedia.org/property/ethnicity 0.012987012987012988
 http://dbpedia.org/property/headerAlign 0.025974025974025976
 http://dbpedia.org/property/s 0.025974025974025976
 http://dbpedia.org/property/mapCaption 0.012987012987012988
 http://dbpedia.org/property/p 0.025974025974025976
 http://dbpedia.org/ontology/residence 0.05194805194805195
 http://dbpedia.org/property/q 0.025974025974025976
 http://dbpedia.org/property/v 0.025974025974025976
 http://dbpedia.org/property/children 0.03896103896103896
 http://dbpedia.org/ontology/award 0.06493506493506493
 http://dbpedia.org/property/w 0.025974025974025976
 http://dbpedia.org/property/widthImperial 0.012987012987012988
 http://dbpedia.org/ontology/alias 0.19480519480519481
 http://dbpedia.org/property/j 0.012987012987012988
 http://dbpedia.org/ontology/country 0.012987012987012988
 http://dbpedia.org/property/mergedInto 0.012987012987012988
 http://dbpedia.org/property/cause 0.012987012987012988
 http://dbpedia.org/property/n 0.025974025974025976
 http://dbpedia.org/property/language 0.012987012987012988
 http://dbpedia.org/property/l 0.025974025974025976
 http://dbpedia.org/property/b 0.025974025974025976
 http://dbpedia.org/property/c 0.012987012987012988
 http://dbpedia.org/property/d 0.025974025974025976
 http://dbpedia.org/ontology/viafId 0.3116883116883117
 http://dbpedia.org/property/relatives 0.012987012987012988
 http://dbpedia.org/property/mission 0.012987012987012988
 http://dbpedia.org/property/wordnet_type 0.06493506493506493
 http://dbpedia.org/property/nationality 0.07792207792207792
 http://dbpedia.org/ontology/wikiPageRevisionID 0.987012987012987
 http://dbpedia.org/property/fullName 0.012987012987012988
 http://dbpedia.org/property/boxurl 0.012987012987012988
is http://dbpedia.org/ontology/basedOn 0.012987012987012988
 http://dbpedia.org/property/convictionStatus 0.012987012987012988
 http://dbpedia.org/property/location 0.025974025974025976
 http://dbpedia.org/property/margin 0.012987012987012988
 http://dbpedia.org/property/survivors 0.012987012987012988
 http://dbpedia.org/ontology/width 0.012987012987012988
 http://www.w3.org/1999/02/22-rdf-syntax-ns#type 0.922077922077922
 http://xmlns.com/foaf/0.1/name 0.4935064935064935
is http://dbpedia.org/property/aux 0.012987012987012988
 http://dbpedia.org/ontology/deathYear 0.35064935064935066
 http://dbpedia.org/ontology/activeYearsStartYear 0.012987012987012988
 http://dbpedia.org/property/leaderTitle 0.012987012987012988
 http://dbpedia.org/property/relatedlegislation 0.012987012987012988
 http://dbpedia.org/ontology/relative 0.012987012987012988
is http://dbpedia.org/ontology/wikiPageDisambiguates 0.4935064935064935
 http://dbpedia.org/property/suspects 0.012987012987012988
is http://dbpedia.org/property/style 0.012987012987012988
is http://dbpedia.org/property/format 0.012987012987012988
 http://dbpedia.org/property/yearsActive 0.012987012987012988
 http://dbpedia.org/property/party 0.012987012987012988
 http://dbpedia.org/ontology/religion 0.03896103896103896
 http://dbpedia.org/ontology/deathCause 0.03896103896103896
 http://dbpedia.org/property/operator 0.012987012987012988
 http://dbpedia.org/ontology/education 0.012987012987012988
 http://dbpedia.org/property/nativeName 0.012987012987012988
 http://dbpedia.org/property/imageFile 0.012987012987012988
 http://dbpedia.org/property/charge 0.025974025974025976
is http://dbpedia.org/property/deathCause 0.012987012987012988
 http://dbpedia.org/ontology/cost 0.012987012987012988
 http://dbpedia.org/property/group 0.03896103896103896
 http://www.georss.org/georss/point 0.012987012987012988
 http://dbpedia.org/property/placeOfBirth 0.3246753246753247
is http://dbpedia.org/ontology/previousEditor 0.012987012987012988
 http://dbpedia.org/ontology/almaMater 0.06493506493506493
 http://dbpedia.org/ontology/spouse 0.025974025974025976
 http://dbpedia.org/property/coordinatesDisplay 0.012987012987012988
 http://dbpedia.org/property/website 0.012987012987012988
is http://dbpedia.org/ontology/doctoralStudent 0.012987012987012988
 http://dbpedia.org/property/formerName 0.012987012987012988
 http://dbpedia.org/property/poj 0.012987012987012988
 http://dbpedia.org/ontology/nationality 0.025974025974025976
 http://dbpedia.org/property/longEw 0.012987012987012988
 http://dbpedia.org/property/releaseDate 0.012987012987012988
 http://dbpedia.org/property/pos 0.012987012987012988
 http://dbpedia.org/property/stadium 0.012987012987012988
 http://dbpedia.org/property/keyPeople 0.012987012987012988
 http://dbpedia.org/ontology/restingPlace 0.03896103896103896
 http://dbpedia.org/property/pnd 0.012987012987012988
 http://xmlns.com/foaf/0.1/surname 0.38961038961038963
 http://www.w3.org/2000/01/rdf-schema#seeAlso 0.15584415584415584
is http://dbpedia.org/property/chiefscout 0.012987012987012988
 http://xmlns.com/foaf/0.1/isPrimaryTopicOf 0.987012987012987
 http://dbpedia.org/property/dissolvedState 0.012987012987012988
 http://dbpedia.org/property/restingPlace 0.05194805194805195
 http://dbpedia.org/ontology/type 0.025974025974025976
 http://dbpedia.org/property/filename 0.012987012987012988
 http://dbpedia.org/ontology/location 0.025974025974025976
 http://dbpedia.org/property/source 0.22077922077922077
 http://dbpedia.org/property/above 0.012987012987012988
 http://dbpedia.org/property/quote 0.22077922077922077
 http://dbpedia.org/property/relations 0.012987012987012988
 http://dbpedia.org/property/residence 0.05194805194805195
 http://dbpedia.org/property/office 0.012987012987012988
 http://dbpedia.org/property/halign 0.012987012987012988
 http://dbpedia.org/property/widthRound 0.012987012987012988
is http://dbpedia.org/property/otherTopics 0.012987012987012988
 http://dbpedia.org/property/reportedDeath(s)_ 0.012987012987012988
 http://dbpedia.org/property/victims 0.025974025974025976
 http://dbpedia.org/property/birthPlace 0.24675324675324675
 http://dbpedia.org/ontology/knownFor 0.11688311688311688
 http://dbpedia.org/ontology/foundingYear 0.012987012987012988
 http://dbpedia.org/property/city 0.012987012987012988
is http://dbpedia.org/property/reverseDesign 0.012987012987012988
 http://dbpedia.org/property/map 0.012987012987012988
 http://dbpedia.org/property/awards 0.05194805194805195
 http://dbpedia.org/property/architecturalStyle 0.012987012987012988
 http://www.w3.org/2000/01/rdf-schema#label 0.987012987012987
 http://dbpedia.org/property/established 0.012987012987012988
 http://dbpedia.org/property/audio 0.012987012987012988
 http://xmlns.com/foaf/0.1/depiction 0.8311688311688312
 http://dbpedia.org/ontology/title 0.012987012987012988
is http://dbpedia.org/ontology/notableWork 0.012987012987012988
 http://dbpedia.org/property/label 0.025974025974025976
is http://dbpedia.org/ontology/opponent 0.012987012987012988
 http://dbpedia.org/ontology/isbn 0.012987012987012988
 http://dbpedia.org/property/owner 0.012987012987012988
 http://dbpedia.org/ontology/parent 0.012987012987012988
 http://dbpedia.org/property/deathDate 0.23376623376623376
 http://dbpedia.org/property/title 0.05194805194805195
 http://dbpedia.org/property/by 0.012987012987012988
 http://dbpedia.org/property/pubdate 0.012987012987012988
 http://dbpedia.org/property/crew 0.012987012987012988
 http://dbpedia.org/property/employer 0.03896103896103896
 http://dbpedia.org/property/deathCause 0.06493506493506493
 http://dbpedia.org/property/umpire 0.012987012987012988
 http://dbpedia.org/property/otherName 0.012987012987012988
is http://dbpedia.org/property/keyPeople 0.012987012987012988
 http://dbpedia.org/property/text 0.012987012987012988
is http://www.w3.org/2002/07/owl#differentFrom 0.03896103896103896
 http://dbpedia.org/property/alt 0.18181818181818182
 http://dbpedia.org/property/weight2Type 0.012987012987012988
 http://dbpedia.org/property/dateOfDeath 0.33766233766233766
is http://dbpedia.org/ontology/daylightSavingTimeZone 0.012987012987012988
 http://dbpedia.org/property/score 0.012987012987012988
 http://dbpedia.org/property/attendance 0.012987012987012988
