 http://dbpedia.org/property/riboflavinMg 0.2857142857142857
 http://dbpedia.org/property/thiaminMg 0.2857142857142857
 http://www.w3.org/1999/02/22-rdf-syntax-ns#type 0.7857142857142857
is http://dbpedia.org/ontology/wikiPageRedirects 0.9285714285714286
 http://dbpedia.org/property/institute 0.07142857142857142
is http://dbpedia.org/property/aux 0.07142857142857142
 http://xmlns.com/foaf/0.1/name 0.5714285714285714
 http://xmlns.com/foaf/0.1/homepage 0.21428571428571427
 http://dbpedia.org/ontology/deathYear 0.07142857142857142
 http://dbpedia.org/ontology/division 0.14285714285714285
 http://dbpedia.org/ontology/numberOfEmployees 0.07142857142857142
 http://dbpedia.org/property/industry 0.07142857142857142
 http://dbpedia.org/property/parent 0.07142857142857142
is http://dbpedia.org/ontology/ingredient 0.2857142857142857
 http://dbpedia.org/ontology/order 0.14285714285714285
 http://dbpedia.org/property/direction 0.07142857142857142
is http://dbpedia.org/ontology/industry 0.07142857142857142
 http://dbpedia.org/ontology/abstract 0.9285714285714286
 http://dbpedia.org/property/carbs 0.2857142857142857
 http://dbpedia.org/property/portal 0.07142857142857142
 http://dbpedia.org/property/fibre 0.07142857142857142
is http://dbpedia.org/ontology/wikiPageDisambiguates 0.5
 http://dbpedia.org/property/country 0.21428571428571427
 http://dbpedia.org/property/subject 0.07142857142857142
is http://dbpedia.org/ontology/product 0.07142857142857142
 http://dbpedia.org/property/areaServed 0.07142857142857142
 http://dbpedia.org/ontology/wikiPageExternalLink 0.8571428571428571
 http://dbpedia.org/property/sugars 0.21428571428571427
 http://dbpedia.org/ontology/genus 0.07142857142857142
 http://dbpedia.org/property/bullet 0.07142857142857142
 http://dbpedia.org/ontology/birthDate 0.07142857142857142
 http://dbpedia.org/property/image2Caption 0.07142857142857142
 http://dbpedia.org/ontology/lcc 0.07142857142857142
 http://dbpedia.org/property/genusAuthority 0.07142857142857142
is http://dbpedia.org/ontology/hasVariant 0.14285714285714285
 http://dbpedia.org/ontology/binomialAuthority 0.07142857142857142
 http://dbpedia.org/property/binomial 0.07142857142857142
 http://dbpedia.org/property/subfamilia 0.07142857142857142
 http://dbpedia.org/property/isbn 0.07142857142857142
 http://dbpedia.org/property/commons 0.21428571428571427
 http://dbpedia.org/property/note 0.21428571428571427
 http://dbpedia.org/ontology/birthPlace 0.07142857142857142
 http://dbpedia.org/property/footer 0.14285714285714285
 http://dbpedia.org/property/folateUg 0.21428571428571427
 http://dbpedia.org/property/image 0.2857142857142857
 http://dbpedia.org/property/mainIngredient 0.14285714285714285
 http://dbpedia.org/property/glucose 0.07142857142857142
 http://dbpedia.org/property/unrankedDivisio 0.14285714285714285
 http://purl.org/dc/elements/1.1/description 0.07142857142857142
 http://dbpedia.org/property/numEmployees 0.07142857142857142
 http://dbpedia.org/property/group 0.07142857142857142
 http://dbpedia.org/property/origin 0.14285714285714285
 http://dbpedia.org/property/luteinUg 0.07142857142857142
 http://dbpedia.org/property/hazards 0.07142857142857142
 http://dbpedia.org/property/placeOfBirth 0.07142857142857142
is http://dbpedia.org/property/mainIngredient 0.21428571428571427
 http://dbpedia.org/property/binomialAuthority 0.07142857142857142
 http://dbpedia.org/property/water 0.14285714285714285
 http://dbpedia.org/property/vitcMg 0.21428571428571427
 http://dbpedia.org/property/vitkUg 0.14285714285714285
 http://dbpedia.org/ontology/class 0.14285714285714285
 http://dbpedia.org/property/sodiumMg 0.21428571428571427
 http://www.w3.org/2000/01/rdf-schema#comment 0.9285714285714286
 http://dbpedia.org/ontology/wineRegion 0.07142857142857142
 http://dbpedia.org/property/published 0.07142857142857142
 http://dbpedia.org/property/shortDescription 0.07142857142857142
 http://dbpedia.org/property/revenue 0.07142857142857142
 http://dbpedia.org/property/fat 0.2857142857142857
 http://dbpedia.org/property/ordo 0.14285714285714285
 http://dbpedia.org/property/no 0.07142857142857142
 http://dbpedia.org/property/crossingYear 0.07142857142857142
is http://dbpedia.org/ontology/species 0.07142857142857142
 http://dbpedia.org/property/keyPeople 0.07142857142857142
 http://dbpedia.org/property/logo 0.07142857142857142
 http://dbpedia.org/property/regnum 0.14285714285714285
 http://dbpedia.org/ontology/industry 0.07142857142857142
 http://dbpedia.org/property/products 0.07142857142857142
is http://dbpedia.org/property/hosts 0.07142857142857142
 http://dbpedia.org/property/sucrose 0.07142857142857142
 http://dbpedia.org/property/align 0.21428571428571427
 http://dbpedia.org/ontology/kingdom 0.14285714285714285
 http://dbpedia.org/ontology/family 0.14285714285714285
 http://dbpedia.org/property/right 0.07142857142857142
 http://dbpedia.org/property/author 0.07142857142857142
 http://xmlns.com/foaf/0.1/surname 0.07142857142857142
 http://dbpedia.org/property/opt1n 0.07142857142857142
 http://www.w3.org/2000/01/rdf-schema#seeAlso 0.21428571428571427
 http://dbpedia.org/property/regions 0.07142857142857142
 http://dbpedia.org/property/phosphorusMg 0.2857142857142857
 http://dbpedia.org/property/wikt 0.14285714285714285
 http://www.w3.org/2002/07/owl#sameAs 1.0
 http://xmlns.com/foaf/0.1/isPrimaryTopicOf 1.0
 http://dbpedia.org/ontology/origin 0.21428571428571427
 http://dbpedia.org/property/tribus 0.07142857142857142
 http://dbpedia.org/property/protein 0.2857142857142857
 http://dbpedia.org/ontology/type 0.07142857142857142
 http://dbpedia.org/property/unrankedClassis 0.14285714285714285
 http://dbpedia.org/ontology/birthYear 0.07142857142857142
 http://dbpedia.org/property/name 0.7142857142857143
 http://dbpedia.org/property/rangeMapWidth 0.07142857142857142
 http://dbpedia.org/ontology/location 0.07142857142857142
 http://dbpedia.org/ontology/creatorOfDish 0.07142857142857142
 http://dbpedia.org/property/subdivisionRanks 0.07142857142857142
 http://dbpedia.org/property/source 0.07142857142857142
 http://dbpedia.org/property/quote 0.07142857142857142
 http://dbpedia.org/property/founder 0.07142857142857142
 http://dbpedia.org/property/caption 0.35714285714285715
 http://dbpedia.org/ontology/ingredient 0.14285714285714285
 http://dbpedia.org/property/rangeMap 0.07142857142857142
 http://dbpedia.org/property/opt1v 0.07142857142857142
 http://dbpedia.org/property/potassiumMg 0.2857142857142857
 http://dbpedia.org/property/genus 0.14285714285714285
 http://dbpedia.org/ontology/deathDate 0.07142857142857142
 http://www.w3.org/ns/prov#wasDerivedFrom 1.0
 http://dbpedia.org/ontology/thumbnail 0.8571428571428571
 http://dbpedia.org/property/opt2v 0.07142857142857142
 http://dbpedia.org/property/imageSize 0.07142857142857142
 http://dbpedia.org/property/width 0.2857142857142857
 http://dbpedia.org/property/niacinMg 0.21428571428571427
 http://dbpedia.org/property/synonyms 0.14285714285714285
 http://dbpedia.org/property/foundation 0.07142857142857142
 http://dbpedia.org/ontology/synonym 0.14285714285714285
 http://dbpedia.org/property/opt2n 0.07142857142857142
 http://dbpedia.org/property/rangeMapAlt 0.07142857142857142
 http://dbpedia.org/ontology/numberOfPages 0.07142857142857142
 http://dbpedia.org/property/magnesiumMg 0.2857142857142857
is http://www.w3.org/2000/01/rdf-schema#seeAlso 0.07142857142857142
 http://dbpedia.org/property/fiber 0.21428571428571427
 http://dbpedia.org/property/subdivision 0.14285714285714285
 http://dbpedia.org/ontology/foundingYear 0.07142857142857142
 http://dbpedia.org/property/betacaroteneUg 0.07142857142857142
 http://dbpedia.org/ontology/wikiPageID 1.0
 http://dbpedia.org/ontology/parentCompany 0.07142857142857142
 http://xmlns.com/foaf/0.1/givenName 0.07142857142857142
 http://dbpedia.org/property/dateOfBirth 0.07142857142857142
 http://www.w3.org/2000/01/rdf-schema#label 1.0
 http://dbpedia.org/property/creator 0.07142857142857142
 http://dbpedia.org/property/colorAlt 0.07142857142857142
 http://dbpedia.org/property/pantothenicMg 0.2857142857142857
 http://dbpedia.org/property/hasPhotoCollection 0.9285714285714286
 http://dbpedia.org/property/breeder 0.07142857142857142
 http://dbpedia.org/property/zincMg 0.2857142857142857
 http://xmlns.com/foaf/0.1/depiction 0.8571428571428571
 http://dbpedia.org/property/vitaIu 0.07142857142857142
 http://dbpedia.org/property/species 0.2857142857142857
 http://dbpedia.org/property/familia 0.14285714285714285
 http://purl.org/dc/terms/subject 0.9285714285714286
 http://dbpedia.org/ontology/oclc 0.07142857142857142
 http://dbpedia.org/property/s 0.21428571428571427
 http://dbpedia.org/property/pedigree 0.07142857142857142
 http://dbpedia.org/property/unrankedOrdo 0.14285714285714285
 http://dbpedia.org/property/q 0.21428571428571427
 http://dbpedia.org/property/oclc 0.07142857142857142
 http://dbpedia.org/property/v 0.21428571428571427
 http://dbpedia.org/ontology/isbn 0.07142857142857142
 http://dbpedia.org/property/sourceUsda 0.2857142857142857
is http://xmlns.com/foaf/0.1/primaryTopic 1.0
 http://dbpedia.org/property/viteMg 0.07142857142857142
 http://dbpedia.org/property/language 0.07142857142857142
 http://dbpedia.org/property/n 0.21428571428571427
 http://dbpedia.org/ontology/foundationPlace 0.07142857142857142
 http://dbpedia.org/property/calciumMg 0.2857142857142857
 http://dbpedia.org/property/kj 0.2857142857142857
 http://dbpedia.org/property/b 0.21428571428571427
 http://dbpedia.org/property/ironMg 0.2857142857142857
 http://dbpedia.org/ontology/wikiPageRedirects 0.07142857142857142
 http://dbpedia.org/property/vitaUg 0.07142857142857142
 http://dbpedia.org/ontology/revenue 0.07142857142857142
is http://www.w3.org/2002/07/owl#sameAs 0.07142857142857142
 http://dbpedia.org/property/copperMg 0.07142857142857142
 http://dbpedia.org/property/vitb6Mg 0.2857142857142857
 http://dbpedia.org/property/region 0.07142857142857142
 http://dbpedia.org/ontology/wikiPageRevisionID 1.0
is http://dbpedia.org/ontology/genus 0.07142857142857142
 http://dbpedia.org/property/imageCaption 0.14285714285714285
 http://dbpedia.org/property/color 0.07142857142857142
 http://dbpedia.org/property/alt 0.21428571428571427
 http://dbpedia.org/property/location 0.07142857142857142
 http://dbpedia.org/property/dateOfDeath 0.07142857142857142
 http://dbpedia.org/property/congress 0.07142857142857142
 http://dbpedia.org/property/pages 0.07142857142857142
 http://dbpedia.org/property/type 0.07142857142857142
 http://dbpedia.org/ontology/product 0.07142857142857142
 http://dbpedia.org/ontology/species 0.07142857142857142
 http://dbpedia.org/property/manganeseMg 0.2857142857142857
 http://dbpedia.org/property/homepage 0.07142857142857142
