 http://dbpedia.org/property/links 0.07692307692307693
 http://www.w3.org/1999/02/22-rdf-syntax-ns#type 0.8461538461538461
is http://dbpedia.org/ontology/wikiPageRedirects 0.9230769230769231
is http://dbpedia.org/property/subdivisionName 0.07692307692307693
 http://dbpedia.org/property/colwidth 0.15384615384615385
 http://xmlns.com/foaf/0.1/name 0.3076923076923077
is http://dbpedia.org/ontology/knownFor 0.38461538461538464
 http://dbpedia.org/property/iso3comment 0.07692307692307693
is http://dbpedia.org/ontology/ethnicity 0.07692307692307693
is http://dbpedia.org/ontology/nationality 0.07692307692307693
is http://dbpedia.org/property/mediumOfLanguage 0.07692307692307693
is http://dbpedia.org/property/tamil 0.07692307692307693
 http://dbpedia.org/property/glottorefname 0.15384615384615385
 http://dbpedia.org/ontology/abstract 0.9230769230769231
is http://dbpedia.org/ontology/wikiPageDisambiguates 0.6153846153846154
 http://dbpedia.org/property/indicipa 0.07692307692307693
is http://dbpedia.org/property/blank3Info 0.07692307692307693
 http://dbpedia.org/ontology/wikiPageExternalLink 0.9230769230769231
 http://dbpedia.org/property/piccap 0.07692307692307693
is http://dbpedia.org/property/demographics1Info 0.15384615384615385
 http://dbpedia.org/property/fam 0.3076923076923077
is http://dbpedia.org/property/format 0.07692307692307693
is http://dbpedia.org/property/originalLanguage(s)_ 0.07692307692307693
 http://dbpedia.org/ontology/spokenIn 0.3076923076923077
 http://dbpedia.org/property/lang 0.07692307692307693
 http://dbpedia.org/property/child 0.07692307692307693
is http://dbpedia.org/property/languagesSpoken 0.07692307692307693
 http://dbpedia.org/property/code 0.07692307692307693
 http://dbpedia.org/ontology/iso6391Code 0.15384615384615385
 http://dbpedia.org/property/mapcaption 0.23076923076923078
 http://dbpedia.org/property/sample 0.07692307692307693
is http://dbpedia.org/property/occupation 0.07692307692307693
is http://dbpedia.org/ontology/languageFamily 0.23076923076923078
 http://dbpedia.org/property/footer 0.07692307692307693
 http://dbpedia.org/property/image 0.07692307692307693
is http://dbpedia.org/property/blank5Info 0.07692307692307693
is http://dbpedia.org/property/mothertongue 0.07692307692307693
is http://dbpedia.org/property/spokenLanguage 0.07692307692307693
 http://dbpedia.org/property/nation 0.15384615384615385
 http://dbpedia.org/property/group 0.07692307692307693
 http://dbpedia.org/property/gr 0.07692307692307693
is http://dbpedia.org/property/language 0.3076923076923077
is http://dbpedia.org/property/year 0.07692307692307693
is http://dbpedia.org/property/nativeNameLang 0.15384615384615385
is http://dbpedia.org/property/medium 0.07692307692307693
is http://dbpedia.org/property/langs 0.3076923076923077
 http://dbpedia.org/property/after 0.07692307692307693
 http://dbpedia.org/property/family 0.07692307692307693
 http://dbpedia.org/property/showlang 0.07692307692307693
is http://dbpedia.org/property/child 0.15384615384615385
 http://dbpedia.org/property/bgcolor 0.07692307692307693
 http://dbpedia.org/property/linglist 0.07692307692307693
is http://dbpedia.org/ontology/isPartOf 0.07692307692307693
is http://dbpedia.org/property/budget 0.07692307692307693
 http://dbpedia.org/property/time 0.07692307692307693
 http://www.w3.org/2000/01/rdf-schema#comment 0.9230769230769231
 http://dbpedia.org/property/myr 0.07692307692307693
is http://dbpedia.org/property/foreign 0.07692307692307693
 http://dbpedia.org/property/poj 0.07692307692307693
is http://www.w3.org/2004/02/skos/core#subject 0.07692307692307693
is http://dbpedia.org/property/primaryLanguages 0.15384615384615385
 http://dbpedia.org/property/notice 0.3076923076923077
is http://dbpedia.org/property/nativeLang 0.07692307692307693
is http://dbpedia.org/property/classesOffered 0.07692307692307693
 http://dbpedia.org/ontology/languageFamily 0.3076923076923077
is http://dbpedia.org/ontology/influenced 0.07692307692307693
 http://dbpedia.org/property/date 0.3076923076923077
is http://dbpedia.org/property/blank2Info 0.07692307692307693
 http://dbpedia.org/property/script 0.15384615384615385
 http://dbpedia.org/property/align 0.07692307692307693
 http://dbpedia.org/property/years 0.07692307692307693
 http://dbpedia.org/property/states 0.3076923076923077
is http://dbpedia.org/property/origLang 0.07692307692307693
is http://dbpedia.org/property/influenced 0.07692307692307693
 http://dbpedia.org/property/altname 0.07692307692307693
 http://dbpedia.org/property/lingname 0.07692307692307693
 http://www.w3.org/2000/01/rdf-schema#seeAlso 0.46153846153846156
is http://dbpedia.org/property/fam 0.3076923076923077
is http://dbpedia.org/ontology/region 0.07692307692307693
 http://www.w3.org/2002/07/owl#sameAs 1.0
 http://www.w3.org/2002/07/owl#differentFrom 0.07692307692307693
is http://dbpedia.org/property/blankInfoSec 0.07692307692307693
 http://dbpedia.org/property/sign 0.15384615384615385
 http://xmlns.com/foaf/0.1/isPrimaryTopicOf 0.9230769230769231
 http://dbpedia.org/property/dia 0.07692307692307693
 http://dbpedia.org/property/trans 0.07692307692307693
 http://dbpedia.org/property/name 0.46153846153846156
 http://dbpedia.org/property/source 0.07692307692307693
 http://dbpedia.org/property/quote 0.07692307692307693
 http://dbpedia.org/property/before 0.07692307692307693
 http://dbpedia.org/property/caption 0.07692307692307693
 http://dbpedia.org/property/familycolor 0.38461538461538464
 http://dbpedia.org/property/iso 0.46153846153846156
 http://www.w3.org/ns/prov#wasDerivedFrom 0.9230769230769231
 http://dbpedia.org/ontology/thumbnail 0.9230769230769231
 http://dbpedia.org/property/glotto 0.38461538461538464
is http://dbpedia.org/ontology/originalLanguage 0.15384615384615385
 http://dbpedia.org/property/width 0.07692307692307693
is http://dbpedia.org/ontology/nonFictionSubject 0.07692307692307693
is http://dbpedia.org/property/data 0.07692307692307693
 http://dbpedia.org/property/showhelp 0.07692307692307693
 http://dbpedia.org/property/indicaudio 0.07692307692307693
 http://dbpedia.org/property/agency 0.15384615384615385
 http://dbpedia.org/property/ref 0.07692307692307693
is http://dbpedia.org/property/origlanguage 0.07692307692307693
is http://www.w3.org/2000/01/rdf-schema#seeAlso 0.38461538461538464
 http://dbpedia.org/property/map 0.3076923076923077
 http://dbpedia.org/ontology/wikiPageID 0.9230769230769231
 http://dbpedia.org/ontology/languageRegulator 0.15384615384615385
is http://dbpedia.org/property/related 0.07692307692307693
 http://dbpedia.org/property/ld 0.07692307692307693
is http://dbpedia.org/property/languagesspoken 0.15384615384615385
 http://dbpedia.org/property/tp 0.07692307692307693
is http://dbpedia.org/property/languages 0.3076923076923077
 http://www.w3.org/2000/01/rdf-schema#label 0.9230769230769231
 http://dbpedia.org/property/glottoname 0.15384615384615385
 http://dbpedia.org/property/hasPhotoCollection 0.9230769230769231
 http://dbpedia.org/property/ancestor 0.07692307692307693
is http://dbpedia.org/property/blank1InfoSec 0.07692307692307693
 http://dbpedia.org/ontology/iso6392Code 0.23076923076923078
 http://dbpedia.org/property/lc 0.07692307692307693
 http://xmlns.com/foaf/0.1/depiction 0.9230769230769231
 http://dbpedia.org/property/imagesize 0.07692307692307693
 http://purl.org/dc/terms/subject 0.9230769230769231
 http://dbpedia.org/property/s 0.07692307692307693
 http://dbpedia.org/ontology/iso6393Code 0.23076923076923078
 http://dbpedia.org/property/speakers 0.3076923076923077
 http://dbpedia.org/property/p 0.15384615384615385
 http://dbpedia.org/property/w 0.07692307692307693
 http://dbpedia.org/property/t 0.07692307692307693
is http://dbpedia.org/ontology/education 0.15384615384615385
is http://xmlns.com/foaf/0.1/primaryTopic 0.9230769230769231
 http://dbpedia.org/property/j 0.07692307692307693
 http://dbpedia.org/property/indent 0.07692307692307693
 http://dbpedia.org/property/languages 0.07692307692307693
 http://dbpedia.org/property/language 0.07692307692307693
 http://dbpedia.org/property/nativename 0.15384615384615385
is http://dbpedia.org/property/lang 0.07692307692307693
 http://dbpedia.org/property/l 0.07692307692307693
 http://dbpedia.org/property/protoname 0.15384615384615385
 http://dbpedia.org/property/c 0.07692307692307693
 http://dbpedia.org/property/title 0.07692307692307693
is http://dbpedia.org/property/official 0.15384615384615385
 http://dbpedia.org/property/imagecaption 0.07692307692307693
is http://dbpedia.org/ontology/language 0.3076923076923077
is http://dbpedia.org/ontology/related 0.07692307692307693
 http://dbpedia.org/property/indic 0.07692307692307693
is http://dbpedia.org/property/mainInterests 0.07692307692307693
is http://dbpedia.org/property/commonLanguages 0.3076923076923077
is http://dbpedia.org/property/dia 0.07692307692307693
is http://dbpedia.org/property/movement 0.07692307692307693
 http://dbpedia.org/property/salign 0.07692307692307693
is http://dbpedia.org/ontology/occupation 0.15384615384615385
is http://dbpedia.org/property/officialLanguages 0.15384615384615385
 http://dbpedia.org/property/wordnet_type 0.23076923076923078
 http://dbpedia.org/property/ethnicity 0.3076923076923077
 http://dbpedia.org/property/region 0.23076923076923078
 http://dbpedia.org/ontology/wikiPageRevisionID 0.9230769230769231
is http://dbpedia.org/property/immigrant 0.07692307692307693
is http://dbpedia.org/property/demographics2Info 0.07692307692307693
is http://www.w3.org/2002/07/owl#differentFrom 0.07692307692307693
 http://dbpedia.org/property/lingua 0.07692307692307693
 http://dbpedia.org/property/alt 0.07692307692307693
is http://dbpedia.org/property/newspaper 0.07692307692307693
is http://dbpedia.org/property/before 0.07692307692307693
is http://dbpedia.org/property/subject 0.15384615384615385
 http://dbpedia.org/property/type 0.07692307692307693
 http://dbpedia.org/property/y 0.07692307692307693
is http://dbpedia.org/ontology/officialLanguage 0.07692307692307693
is http://dbpedia.org/property/nativeName 0.07692307692307693
