is http://dbpedia.org/ontology/wikiPageRedirects 0.8888888888888888
 http://www.w3.org/1999/02/22-rdf-syntax-ns#type 0.4444444444444444
 http://dbpedia.org/property/source 0.1111111111111111
is http://dbpedia.org/ontology/knownFor 0.3333333333333333
is http://xmlns.com/foaf/0.1/primaryTopic 0.8888888888888888
 http://dbpedia.org/property/quote 0.2222222222222222
 http://dbpedia.org/property/caption 0.2222222222222222
 http://dbpedia.org/property/id 0.2222222222222222
 http://dbpedia.org/property/qalign 0.1111111111111111
 http://www.w3.org/2000/01/rdf-schema#comment 0.6666666666666666
 http://dbpedia.org/property/direction 0.3333333333333333
 http://www.w3.org/ns/prov#wasDerivedFrom 0.8888888888888888
 http://dbpedia.org/ontology/thumbnail 0.7777777777777778
 http://dbpedia.org/ontology/abstract 0.6666666666666666
 http://dbpedia.org/property/title 0.3333333333333333
is http://dbpedia.org/ontology/wikiPageDisambiguates 0.7777777777777778
is http://dbpedia.org/property/knownFor 0.3333333333333333
 http://dbpedia.org/property/width 0.3333333333333333
 http://dbpedia.org/ontology/wikiPageExternalLink 0.8888888888888888
 http://dbpedia.org/property/urlname 0.1111111111111111
is http://www.w3.org/2000/01/rdf-schema#seeAlso 0.2222222222222222
 http://dbpedia.org/ontology/wikiPageID 0.8888888888888888
 http://dbpedia.org/ontology/wikiPageRevisionID 0.8888888888888888
is http://dbpedia.org/property/decoding 0.1111111111111111
 http://dbpedia.org/property/fontsize 0.1111111111111111
 http://dbpedia.org/property/align 0.1111111111111111
is http://dbpedia.org/property/name 0.1111111111111111
is http://www.w3.org/2002/07/owl#differentFrom 0.1111111111111111
 http://www.w3.org/2000/01/rdf-schema#label 0.8888888888888888
 http://dbpedia.org/property/alt 0.2222222222222222
 http://dbpedia.org/property/footer 0.2222222222222222
 http://dbpedia.org/property/image 0.3333333333333333
 http://dbpedia.org/property/hasPhotoCollection 0.8888888888888888
 http://www.w3.org/2000/01/rdf-schema#seeAlso 0.3333333333333333
 http://xmlns.com/foaf/0.1/depiction 0.7777777777777778
 http://www.w3.org/2002/07/owl#sameAs 0.8888888888888888
 http://xmlns.com/foaf/0.1/isPrimaryTopicOf 0.8888888888888888
is http://dbpedia.org/ontology/academicDiscipline 0.1111111111111111
 http://purl.org/dc/terms/subject 0.8888888888888888
