 http://dbpedia.org/property/imageName 0.7662337662337663
is http://dbpedia.org/property/blank1NameSec 0.006493506493506494
 http://dbpedia.org/property/damagepost 0.006493506493506494
is http://dbpedia.org/property/fields 0.006493506493506494
is http://dbpedia.org/ontology/wikiPageRedirects 0.6363636363636364
 http://www.w3.org/1999/02/22-rdf-syntax-ns#type 0.4155844155844156
 http://dbpedia.org/property/strongestStormName 0.12987012987012986
is http://dbpedia.org/property/blank2NameSec 0.006493506493506494
 http://xmlns.com/foaf/0.1/homepage 0.006493506493506494
is http://dbpedia.org/ontology/knownFor 0.01948051948051948
 http://dbpedia.org/property/pressure 0.8376623376623377
 http://dbpedia.org/property/direction 0.032467532467532464
 http://dbpedia.org/ontology/abstract 0.987012987012987
is http://dbpedia.org/ontology/wikiPageDisambiguates 0.525974025974026
 http://dbpedia.org/property/deaths 0.08441558441558442
is http://dbpedia.org/property/battles 0.006493506493506494
is http://dbpedia.org/ontology/product 0.006493506493506494
 http://dbpedia.org/property/onlinebooks 0.006493506493506494
 http://dbpedia.org/ontology/wikiPageExternalLink 0.7857142857142857
is http://dbpedia.org/property/field 0.006493506493506494
is http://dbpedia.org/property/primaryFuel 0.006493506493506494
 http://dbpedia.org/property/warningcenter 0.006493506493506494
is http://dbpedia.org/ontology/genre 0.012987012987012988
 http://dbpedia.org/property/maximumAmount 0.006493506493506494
 http://dbpedia.org/property/minPress 0.032467532467532464
 http://dbpedia.org/property/fujitascale 0.006493506493506494
is http://dbpedia.org/property/strongestStormName 0.12337662337662338
 http://dbpedia.org/property/track 0.13636363636363635
 http://dbpedia.org/property/voy 0.006493506493506494
 http://dbpedia.org/property/commons 0.012987012987012988
 http://dbpedia.org/property/basin 0.8896103896103896
 http://dbpedia.org/property/3MinWinds 0.025974025974025976
 http://dbpedia.org/property/totalDamages(usd)_ 0.012987012987012988
is http://dbpedia.org/ontology/battle 0.006493506493506494
 http://dbpedia.org/property/hurricaneSeason 0.7532467532467533
 http://dbpedia.org/property/gusts 0.032467532467532464
 http://dbpedia.org/property/damages 0.7662337662337663
 http://dbpedia.org/property/southPacificSeason 0.006493506493506494
 http://dbpedia.org/property/image 0.032467532467532464
 http://dbpedia.org/property/damagespost 0.012987012987012988
 http://dbpedia.org/property/prepressure 0.012987012987012988
 http://dbpedia.org/property/seasonStats 0.006493506493506494
 http://dbpedia.org/property/maxWinds 0.032467532467532464
is http://dbpedia.org/ontology/associatedBand 0.012987012987012988
 http://dbpedia.org/property/numCyclones 0.032467532467532464
is http://dbpedia.org/property/type 0.012987012987012988
 http://dbpedia.org/property/averageWindSpeed 0.05844155844155844
 http://dbpedia.org/property/event 0.006493506493506494
is http://dbpedia.org/property/teamName 0.006493506493506494
 http://dbpedia.org/property/totAreas 0.006493506493506494
 http://dbpedia.org/property/bgcolor 0.012987012987012988
 http://dbpedia.org/property/1MinWinds 0.8701298701298701
 http://dbpedia.org/property/firstStormFormed 0.12987012987012986
 http://dbpedia.org/property/time 0.006493506493506494
 http://www.w3.org/2000/01/rdf-schema#comment 0.987012987012987
 http://dbpedia.org/property/pressurepost 0.05844155844155844
 http://dbpedia.org/property/damage 0.08441558441558442
is http://www.w3.org/2004/02/skos/core#subject 0.006493506493506494
is http://dbpedia.org/property/shipNamesake 0.006493506493506494
is http://dbpedia.org/property/freeText 0.006493506493506494
 http://dbpedia.org/property/totalIntense 0.12337662337662338
 http://dbpedia.org/property/date 0.012987012987012988
is http://dbpedia.org/property/associatedActs 0.006493506493506494
 http://dbpedia.org/property/align 0.05194805194805195
is http://dbpedia.org/property/name 0.19480519480519481
is http://dbpedia.org/property/stormtype 0.006493506493506494
is http://dbpedia.org/property/developer 0.006493506493506494
 http://dbpedia.org/property/strongestStormPressure 0.11688311688311688
is http://dbpedia.org/property/focus 0.006493506493506494
 http://dbpedia.org/property/seasonTimeline 0.06493506493506493
 http://dbpedia.org/property/border 0.006493506493506494
 http://dbpedia.org/property/refNote 0.006493506493506494
 http://www.w3.org/2000/01/rdf-schema#seeAlso 0.23376623376623376
 http://dbpedia.org/property/totalDisturbances 0.006493506493506494
 http://dbpedia.org/property/formed 0.8376623376623377
 http://dbpedia.org/property/wikt 0.006493506493506494
 http://www.w3.org/2002/07/owl#sameAs 0.987012987012987
 http://www.w3.org/2002/07/owl#differentFrom 0.006493506493506494
 http://dbpedia.org/property/shem 0.006493506493506494
 http://xmlns.com/foaf/0.1/isPrimaryTopicOf 0.987012987012987
 http://dbpedia.org/property/header 0.006493506493506494
 http://dbpedia.org/property/damagespre 0.07142857142857142
is http://dbpedia.org/ontology/field 0.006493506493506494
 http://dbpedia.org/property/totalHurricanes 0.12987012987012986
 http://dbpedia.org/property/strongestStormWinds 0.12337662337662338
 http://dbpedia.org/property/seasonList 0.012987012987012988
 http://dbpedia.org/property/name 0.7922077922077922
 http://dbpedia.org/property/source 0.01948051948051948
is http://dbpedia.org/property/shipPropulsion 0.006493506493506494
 http://dbpedia.org/property/quote 0.012987012987012988
 http://dbpedia.org/property/dissipated 0.8376623376623377
 http://dbpedia.org/property/caption 0.03896103896103896
 http://dbpedia.org/property/pressurepre 0.045454545454545456
is http://dbpedia.org/property/status 0.006493506493506494
 http://www.w3.org/ns/prov#wasDerivedFrom 0.987012987012987
 http://dbpedia.org/ontology/thumbnail 0.9805194805194806
 http://dbpedia.org/property/extratropical 0.14285714285714285
is http://dbpedia.org/property/knownFor 0.006493506493506494
 http://dbpedia.org/property/width 0.045454545454545456
is http://dbpedia.org/ontology/nonFictionSubject 0.012987012987012988
is http://dbpedia.org/property/shirtsupplier 0.006493506493506494
 http://dbpedia.org/property/agency 0.006493506493506494
is http://dbpedia.org/property/mascot 0.012987012987012988
is http://www.w3.org/2000/01/rdf-schema#seeAlso 0.12337662337662338
is http://dbpedia.org/property/stormType 0.006493506493506494
is http://dbpedia.org/ontology/developer 0.006493506493506494
is http://dbpedia.org/ontology/primaryFuelType 0.006493506493506494
 http://dbpedia.org/ontology/wikiPageID 0.987012987012987
 http://dbpedia.org/property/fiveSeasons 0.12987012987012986
 http://dbpedia.org/property/imageLocation 0.7662337662337663
 http://dbpedia.org/property/totDeaths 0.032467532467532464
 http://dbpedia.org/property/totalStorms 0.12987012987012986
 http://dbpedia.org/property/stormtype 0.006493506493506494
 http://dbpedia.org/property/remnantLow 0.012987012987012988
 http://dbpedia.org/property/series 0.03896103896103896
 http://dbpedia.org/property/dateDissipated 0.006493506493506494
 http://www.w3.org/2000/01/rdf-schema#label 0.987012987012987
 http://dbpedia.org/property/tc\'s 0.05194805194805195
 http://dbpedia.org/property/10MinWinds 0.12987012987012986
 http://dbpedia.org/property/totalDepressions 0.11038961038961038
is http://dbpedia.org/property/blankNameSec 0.006493506493506494
 http://dbpedia.org/property/hasPhotoCollection 0.9415584415584416
 http://dbpedia.org/property/inflated 0.5194805194805194
 http://dbpedia.org/property/lcheading 0.006493506493506494
is http://dbpedia.org/property/title 0.006493506493506494
 http://xmlns.com/foaf/0.1/depiction 0.9805194805194806
 http://dbpedia.org/property/lastStormDissipated 0.12987012987012986
is http://dbpedia.org/property/keypoints 0.006493506493506494
 http://dbpedia.org/property/species 0.006493506493506494
 http://purl.org/dc/terms/subject 0.987012987012987
is http://dbpedia.org/property/nickname 0.006493506493506494
 http://dbpedia.org/property/totalFatalities 0.012987012987012988
is http://dbpedia.org/ontology/associatedMusicalArtist 0.012987012987012988
 http://dbpedia.org/property/dates 0.08441558441558442
 http://dbpedia.org/property/areaAffected 0.006493506493506494
 http://dbpedia.org/property/s 0.012987012987012988
 http://dbpedia.org/property/q 0.012987012987012988
 http://dbpedia.org/property/areasAffected 0.006493506493506494
 http://dbpedia.org/property/fatalities 0.8506493506493507
 http://dbpedia.org/property/totDamage 0.032467532467532464
 http://dbpedia.org/property/v 0.012987012987012988
is http://dbpedia.org/property/model 0.006493506493506494
is http://xmlns.com/foaf/0.1/primaryTopic 0.987012987012987
 http://dbpedia.org/property/imageAlt 0.01948051948051948
 http://dbpedia.org/property/windSpeed 0.006493506493506494
 http://dbpedia.org/property/n 0.012987012987012988
 http://dbpedia.org/property/b 0.012987012987012988
 http://dbpedia.org/property/title 0.012987012987012988
 http://dbpedia.org/property/display 0.006493506493506494
 http://dbpedia.org/property/trackAlt 0.012987012987012988
 http://dbpedia.org/property/d 0.006493506493506494
 http://dbpedia.org/property/by 0.006493506493506494
 http://dbpedia.org/property/others 0.006493506493506494
is http://www.w3.org/2002/07/owl#sameAs 0.012987012987012988
 http://dbpedia.org/property/australianSeason 0.006493506493506494
 http://dbpedia.org/property/cat 0.032467532467532464
 http://dbpedia.org/property/pres 0.025974025974025976
is http://dbpedia.org/property/above 0.006493506493506494
 http://dbpedia.org/property/wordnet_type 0.487012987012987
 http://dbpedia.org/property/areas 0.7857142857142857
 http://dbpedia.org/ontology/wikiPageRevisionID 0.987012987012987
 http://dbpedia.org/property/winds 0.025974025974025976
 http://dbpedia.org/property/dateFormed 0.006493506493506494
is http://www.w3.org/2002/07/owl#differentFrom 0.012987012987012988
 http://dbpedia.org/property/alt 0.2792207792207792
 http://dbpedia.org/property/rainfall 0.012987012987012988
 http://dbpedia.org/property/location 0.006493506493506494
is http://dbpedia.org/property/blank5NameSec 0.006493506493506494
 http://dbpedia.org/property/type 0.8896103896103896
is http://dbpedia.org/property/subject 0.006493506493506494
 http://dbpedia.org/property/year 0.8896103896103896
