 http://dbpedia.org/property/knownFor 0.08333333333333333
is http://dbpedia.org/property/fields 0.08333333333333333
 http://www.w3.org/1999/02/22-rdf-syntax-ns#type 0.8333333333333334
is http://dbpedia.org/ontology/wikiPageRedirects 0.9166666666666666
 http://dbpedia.org/property/colwidth 0.08333333333333333
 http://xmlns.com/foaf/0.1/name 0.5
 http://xmlns.com/foaf/0.1/homepage 0.08333333333333333
is http://dbpedia.org/ontology/knownFor 0.16666666666666666
 http://dbpedia.org/ontology/deathYear 0.25
 http://dbpedia.org/property/expiry 0.08333333333333333
 http://dbpedia.org/property/influenced 0.16666666666666666
 http://dbpedia.org/property/meshid 0.08333333333333333
 http://dbpedia.org/ontology/deathPlace 0.08333333333333333
 http://dbpedia.org/ontology/abstract 1.0
is http://dbpedia.org/ontology/wikiPageDisambiguates 0.6666666666666666
 http://dbpedia.org/property/spouse 0.08333333333333333
 http://dbpedia.org/property/country 0.08333333333333333
 http://dbpedia.org/property/subject 0.08333333333333333
 http://dbpedia.org/property/coverArtist 0.08333333333333333
 http://dbpedia.org/ontology/wikiPageExternalLink 0.9166666666666666
 http://dbpedia.org/property/influences 0.16666666666666666
 http://dbpedia.org/ontology/meshId 0.08333333333333333
 http://dbpedia.org/property/viaf 0.16666666666666666
is http://dbpedia.org/property/discipline 0.08333333333333333
is http://dbpedia.org/property/field 0.08333333333333333
 http://dbpedia.org/property/lccn 0.08333333333333333
 http://dbpedia.org/property/dewey 0.08333333333333333
 http://dbpedia.org/ontology/birthDate 0.3333333333333333
is http://dbpedia.org/ontology/literaryGenre 0.08333333333333333
 http://dbpedia.org/ontology/lcc 0.08333333333333333
 http://dbpedia.org/property/voy 0.08333333333333333
 http://dbpedia.org/ontology/dcc 0.08333333333333333
 http://dbpedia.org/property/isbn 0.08333333333333333
 http://dbpedia.org/ontology/nonFictionSubject 0.08333333333333333
 http://dbpedia.org/property/commons 0.08333333333333333
 http://dbpedia.org/ontology/birthPlace 0.25
 http://dbpedia.org/ontology/author 0.08333333333333333
 http://dbpedia.org/ontology/mainInterest 0.16666666666666666
 http://dbpedia.org/property/genre 0.08333333333333333
 http://purl.org/dc/elements/1.1/description 0.3333333333333333
is http://dbpedia.org/property/after 0.08333333333333333
 http://dbpedia.org/property/placeOfBirth 0.3333333333333333
 http://dbpedia.org/property/deathPlace 0.16666666666666666
 http://dbpedia.org/property/after 0.08333333333333333
is http://dbpedia.org/ontology/doctoralAdvisor 0.08333333333333333
 http://dbpedia.org/ontology/spouse 0.08333333333333333
 http://www.w3.org/2000/01/rdf-schema#comment 1.0
 http://dbpedia.org/property/occupation 0.08333333333333333
 http://dbpedia.org/property/alternativeNames 0.08333333333333333
 http://dbpedia.org/ontology/influenced 0.16666666666666666
is http://www.w3.org/2004/02/skos/core#subject 0.08333333333333333
 http://dbpedia.org/ontology/influencedBy 0.16666666666666666
 http://dbpedia.org/property/published 0.08333333333333333
 http://dbpedia.org/property/shortDescription 0.3333333333333333
 http://dbpedia.org/property/era 0.16666666666666666
is http://dbpedia.org/ontology/influenced 0.16666666666666666
 http://dbpedia.org/property/date 0.08333333333333333
 http://dbpedia.org/ontology/icd10 0.08333333333333333
is http://dbpedia.org/ontology/mainInterest 0.16666666666666666
 http://dbpedia.org/property/align 0.16666666666666666
 http://dbpedia.org/property/small 0.08333333333333333
 http://dbpedia.org/property/years 0.08333333333333333
is http://dbpedia.org/property/influenced 0.16666666666666666
 http://dbpedia.org/property/author 0.08333333333333333
 http://xmlns.com/foaf/0.1/surname 0.3333333333333333
 http://www.w3.org/2000/01/rdf-schema#seeAlso 0.25
 http://dbpedia.org/property/wikt 0.08333333333333333
 http://dbpedia.org/property/mw 0.08333333333333333
 http://www.w3.org/2002/07/owl#sameAs 1.0
 http://dbpedia.org/ontology/individualisedGnd 0.08333333333333333
 http://xmlns.com/foaf/0.1/isPrimaryTopicOf 1.0
 http://dbpedia.org/property/placeOfDeath 0.16666666666666666
is http://dbpedia.org/ontology/field 0.08333333333333333
 http://dbpedia.org/ontology/birthYear 0.3333333333333333
 http://dbpedia.org/property/name 0.5
 http://dbpedia.org/property/source 0.08333333333333333
 http://dbpedia.org/property/quote 0.16666666666666666
 http://dbpedia.org/property/schoolTradition 0.16666666666666666
 http://dbpedia.org/property/emedicinetopic 0.08333333333333333
 http://dbpedia.org/property/before 0.08333333333333333
is http://dbpedia.org/property/doctoralAdvisor 0.08333333333333333
 http://dbpedia.org/property/caption 0.25
 http://dbpedia.org/property/notableIdeas 0.16666666666666666
 http://dbpedia.org/ontology/deathDate 0.25
 http://www.w3.org/ns/prov#wasDerivedFrom 1.0
 http://dbpedia.org/ontology/thumbnail 0.8333333333333334
 http://dbpedia.org/property/icd 0.08333333333333333
 http://dbpedia.org/ontology/occupation 0.08333333333333333
is http://dbpedia.org/property/knownFor 0.16666666666666666
 http://dbpedia.org/property/width 0.16666666666666666
 http://dbpedia.org/property/imageSize 0.16666666666666666
is http://dbpedia.org/ontology/nonFictionSubject 0.08333333333333333
 http://dbpedia.org/ontology/numberOfPages 0.08333333333333333
is http://dbpedia.org/ontology/notableIdea 0.16666666666666666
is http://www.w3.org/2000/01/rdf-schema#seeAlso 0.3333333333333333
 http://dbpedia.org/property/birthPlace 0.25
is http://dbpedia.org/property/influences 0.16666666666666666
 http://dbpedia.org/ontology/knownFor 0.08333333333333333
 http://dbpedia.org/property/df 0.08333333333333333
 http://dbpedia.org/ontology/wikiPageID 1.0
 http://xmlns.com/foaf/0.1/givenName 0.3333333333333333
 http://dbpedia.org/property/gnd 0.08333333333333333
 http://dbpedia.org/property/dateOfBirth 0.3333333333333333
 http://dbpedia.org/property/awards 0.08333333333333333
 http://www.w3.org/2000/01/rdf-schema#label 1.0
 http://dbpedia.org/ontology/literaryGenre 0.08333333333333333
is http://dbpedia.org/property/genre 0.08333333333333333
 http://dbpedia.org/ontology/region 0.08333333333333333
 http://dbpedia.org/property/hasPhotoCollection 1.0
 http://dbpedia.org/property/url 0.08333333333333333
is http://dbpedia.org/property/spouse 0.08333333333333333
 http://xmlns.com/foaf/0.1/depiction 0.8333333333333334
 http://dbpedia.org/ontology/era 0.16666666666666666
 http://dbpedia.org/property/species 0.08333333333333333
 http://dbpedia.org/ontology/lccnId 0.08333333333333333
 http://purl.org/dc/terms/subject 1.0
 http://dbpedia.org/ontology/oclc 0.08333333333333333
 http://dbpedia.org/property/s 0.08333333333333333
 http://dbpedia.org/property/oclc 0.08333333333333333
 http://dbpedia.org/property/v 0.08333333333333333
is http://dbpedia.org/property/notableIdeas 0.08333333333333333
 http://dbpedia.org/ontology/isbn 0.08333333333333333
 http://dbpedia.org/ontology/alias 0.08333333333333333
is http://xmlns.com/foaf/0.1/primaryTopic 1.0
 http://dbpedia.org/property/language 0.08333333333333333
 http://dbpedia.org/property/n 0.08333333333333333
 http://dbpedia.org/property/deathDate 0.16666666666666666
 http://dbpedia.org/property/m 0.08333333333333333
 http://dbpedia.org/property/b 0.08333333333333333
 http://dbpedia.org/property/title 0.08333333333333333
 http://dbpedia.org/property/d 0.08333333333333333
is http://dbpedia.org/property/mainInterests 0.16666666666666666
 http://dbpedia.org/ontology/viafId 0.3333333333333333
 http://dbpedia.org/property/birthDate 0.08333333333333333
 http://dbpedia.org/ontology/icd9 0.08333333333333333
 http://dbpedia.org/property/wordnet_type 0.25
 http://dbpedia.org/property/mainInterests 0.16666666666666666
 http://dbpedia.org/ontology/philosophicalSchool 0.16666666666666666
 http://dbpedia.org/property/region 0.16666666666666666
 http://dbpedia.org/ontology/wikiPageRevisionID 1.0
is http://dbpedia.org/property/notableIdea 0.08333333333333333
 http://dbpedia.org/property/alt 0.08333333333333333
 http://dbpedia.org/ontology/notableIdea 0.16666666666666666
is http://dbpedia.org/ontology/influencedBy 0.25
 http://dbpedia.org/property/dateOfDeath 0.25
 http://dbpedia.org/property/congress 0.08333333333333333
is http://dbpedia.org/property/before 0.08333333333333333
 http://dbpedia.org/property/mediaType 0.08333333333333333
 http://dbpedia.org/property/pages 0.08333333333333333
is http://dbpedia.org/property/subject 0.08333333333333333
 http://dbpedia.org/property/birthName 0.08333333333333333
 http://dbpedia.org/property/emedicinesubj 0.08333333333333333
