@relation InstanceResultListener

@attribute Key_Dataset {LearningDomainsForNamedEntities_FA_extended_by_types_all_info}
@attribute Key_Run {1,2}
@attribute Key_Fold {1,2,3,4,5,6,7,8,9,10}
@attribute Key_Scheme {weka.classifiers.trees.RandomForest}
@attribute Key_Scheme_options {'-I 50 -K 15 -S 1 -depth 100','-I 100 -K 15 -S 1 -depth 100','-I 150 -K 15 -S 1 -depth 100'}
@attribute Key_Scheme_version_ID {-2260823972777004705}
@attribute Date_time numeric
@attribute Number_of_training_instances numeric
@attribute Number_of_testing_instances numeric
@attribute Number_correct numeric
@attribute Number_incorrect numeric
@attribute Number_unclassified numeric
@attribute Percent_correct numeric
@attribute Percent_incorrect numeric
@attribute Percent_unclassified numeric
@attribute Kappa_statistic numeric
@attribute Mean_absolute_error numeric
@attribute Root_mean_squared_error numeric
@attribute Relative_absolute_error numeric
@attribute Root_relative_squared_error numeric
@attribute SF_prior_entropy numeric
@attribute SF_scheme_entropy numeric
@attribute SF_entropy_gain numeric
@attribute SF_mean_prior_entropy numeric
@attribute SF_mean_scheme_entropy numeric
@attribute SF_mean_entropy_gain numeric
@attribute KB_information numeric
@attribute KB_mean_information numeric
@attribute KB_relative_information numeric
@attribute True_positive_rate numeric
@attribute Num_true_positives numeric
@attribute False_positive_rate numeric
@attribute Num_false_positives numeric
@attribute True_negative_rate numeric
@attribute Num_true_negatives numeric
@attribute False_negative_rate numeric
@attribute Num_false_negatives numeric
@attribute IR_precision numeric
@attribute IR_recall numeric
@attribute F_measure numeric
@attribute Area_under_ROC numeric
@attribute Weighted_avg_true_positive_rate numeric
@attribute Weighted_avg_false_positive_rate numeric
@attribute Weighted_avg_true_negative_rate numeric
@attribute Weighted_avg_false_negative_rate numeric
@attribute Weighted_avg_IR_precision numeric
@attribute Weighted_avg_IR_recall numeric
@attribute Weighted_avg_F_measure numeric
@attribute Weighted_avg_area_under_ROC numeric
@attribute Elapsed_Time_training numeric
@attribute Elapsed_Time_testing numeric
@attribute UserCPU_Time_training numeric
@attribute UserCPU_Time_testing numeric
@attribute Serialized_Model_Size numeric
@attribute Serialized_Train_Set_Size numeric
@attribute Serialized_Test_Set_Size numeric
@attribute Summary string
@attribute measureOutOfBagError numeric

@data

LearningDomainsForNamedEntities_FA_extended_by_types_all_info,1,1,weka.classifiers.trees.RandomForest,'-I 50 -K 15 -S 1 -depth 100',-2260823972777004705,20160421.1232,2593,289,219,70,0,75.778547,24.221453,0,0.74269,0.028167,0.10965,44.71972,61.791006,1284.058497,432.573592,851.484905,4.443109,1.496794,2.946315,874.807071,3.027014,19682.954991,0.823529,14,0.073529,20,0.926471,252,0.176471,3,0.411765,0.823529,0.54902,0.975779,0.757785,0.01429,0.98571,0.242215,0.796388,0.757785,0.754746,0.970899,11.343,0.044,10.63,0.03,17251168,97999620,11873796,?,0.316236
LearningDomainsForNamedEntities_FA_extended_by_types_all_info,1,2,weka.classifiers.trees.RandomForest,'-I 50 -K 15 -S 1 -depth 100',-2260823972777004705,20160421.1232,2593,289,216,73,0,74.740484,25.259516,0,0.731372,0.02824,0.110166,44.828417,62.071276,1284.276795,1537.101638,-252.824843,4.443864,5.318691,-0.874826,863.99498,2.989602,19439.961528,0.882353,15,0.091912,25,0.908088,247,0.117647,2,0.375,0.882353,0.526316,0.951449,0.747405,0.015632,0.984368,0.252595,0.816861,0.747405,0.748766,0.955871,11.046,0.043,10.47,0.03,17534971,97999620,11873796,?,0.319321
LearningDomainsForNamedEntities_FA_extended_by_types_all_info,1,3,weka.classifiers.trees.RandomForest,'-I 50 -K 15 -S 1 -depth 100',-2260823972777004705,20160421.1232,2594,288,218,70,0,75.694444,24.305556,0,0.741893,0.028902,0.110234,45.894797,62.13254,1275.19771,2592.293754,-1317.096044,4.42777,9.00102,-4.57325,863.090475,2.996842,19411.896585,0.6875,11,0.077206,21,0.922794,251,0.3125,5,0.34375,0.6875,0.458333,0.938879,0.756944,0.014482,0.985518,0.243056,0.809424,0.756944,0.756734,0.955561,11.618,0.033,11.1,0.04,17266157,98037001,11836415,?,0.321511
LearningDomainsForNamedEntities_FA_extended_by_types_all_info,1,4,weka.classifiers.trees.RandomForest,'-I 50 -K 15 -S 1 -depth 100',-2260823972777004705,20160421.1233,2594,288,194,94,0,67.361111,32.638889,0,0.653279,0.032885,0.121139,52.2129,68.268737,1277.407595,530.162794,747.244801,4.435443,1.840843,2.5946,779.226892,2.705649,17529.056837,0.5,8,0.084559,23,0.915441,249,0.5,8,0.258065,0.5,0.340426,0.893153,0.673611,0.019845,0.980155,0.326389,0.740088,0.673611,0.6837,0.941925,10.505,0.037,10.03,0.04,17344820,98037001,11836415,?,0.306091
LearningDomainsForNamedEntities_FA_extended_by_types_all_info,1,5,weka.classifiers.trees.RandomForest,'-I 50 -K 15 -S 1 -depth 100',-2260823972777004705,20160421.1233,2594,288,211,77,0,73.263889,26.736111,0,0.715499,0.030053,0.113381,47.718089,63.899765,1277.771929,1537.991739,-260.21981,4.436708,5.340249,-0.903541,837.649627,2.908506,18844.01032,0.875,14,0.091912,25,0.908088,247,0.125,2,0.358974,0.875,0.509091,0.950368,0.732639,0.017504,0.982496,0.267361,0.773679,0.732639,0.729401,0.956153,10.926,0.03,10.5,0.03,17259054,98037001,11836415,?,0.301079
LearningDomainsForNamedEntities_FA_extended_by_types_all_info,1,6,weka.classifiers.trees.RandomForest,'-I 50 -K 15 -S 1 -depth 100',-2260823972777004705,20160421.1233,2594,288,214,74,0,74.305556,25.694444,0,0.726703,0.028029,0.109881,44.502514,61.925565,1277.957784,440.80795,837.149833,4.437353,1.530583,2.90677,865.308142,3.004542,19466.544283,0.8125,13,0.095588,26,0.904412,246,0.1875,3,0.333333,0.8125,0.472727,0.962316,0.743056,0.016246,0.983754,0.256944,0.778672,0.743056,0.742706,0.96722,10.792,0.029,10.4,0.03,17229266,98037001,11836415,?,0.304549
LearningDomainsForNamedEntities_FA_extended_by_types_all_info,1,7,weka.classifiers.trees.RandomForest,'-I 50 -K 15 -S 1 -depth 100',-2260823972777004705,20160421.1233,2594,288,192,96,0,66.666667,33.333333,0,0.644609,0.031952,0.120822,50.741764,68.10697,1275.620498,5912.304721,-4636.684223,4.429238,20.528836,-16.099598,760.755356,2.641512,17111.025637,0.647059,11,0.077491,21,0.922509,250,0.352941,6,0.34375,0.647059,0.44898,0.939983,0.666667,0.020673,0.979327,0.333333,0.66903,0.666667,0.647849,0.930422,10.899,0.041,10.47,0.04,17485694,98037001,11836415,?,0.296068
LearningDomainsForNamedEntities_FA_extended_by_types_all_info,1,8,weka.classifiers.trees.RandomForest,'-I 50 -K 15 -S 1 -depth 100',-2260823972777004705,20160421.1233,2594,288,192,96,0,66.666667,33.333333,0,0.644582,0.032304,0.1212,51.302476,68.322271,1274.970689,1646.27436,-371.303671,4.426982,5.71623,-1.289249,756.732818,2.627545,17019.59975,0.705882,12,0.092251,25,0.907749,246,0.294118,5,0.324324,0.705882,0.444444,0.888539,0.666667,0.021159,0.978841,0.333333,0.681026,0.666667,0.652377,0.929379,10.622,0.029,10.14,0.02,17881597,98037001,11836415,?,0.299152
LearningDomainsForNamedEntities_FA_extended_by_types_all_info,1,9,weka.classifiers.trees.RandomForest,'-I 50 -K 15 -S 1 -depth 100',-2260823972777004705,20160421.1234,2594,288,189,99,0,65.625,34.375,0,0.634415,0.03179,0.121195,50.486235,68.319672,1274.970689,5891.650273,-4616.679583,4.426982,20.457119,-16.030137,778.718469,2.703884,17514.076761,0.647059,11,0.107011,29,0.892989,242,0.352941,6,0.275,0.647059,0.385965,0.920881,0.65625,0.020562,0.979438,0.34375,0.727689,0.65625,0.662972,0.929863,11.699,0.034,10.81,0.03,17660028,98037001,11836415,?,0.30185
LearningDomainsForNamedEntities_FA_extended_by_types_all_info,1,10,weka.classifiers.trees.RandomForest,'-I 50 -K 15 -S 1 -depth 100',-2260823972777004705,20160421.1234,2594,288,204,84,0,70.833333,29.166667,0,0.689794,0.030338,0.117294,48.173549,66.109363,1277.257394,1577.357994,-300.1006,4.434922,5.476937,-1.042016,798.804663,2.773627,17969.291903,0.764706,13,0.103321,28,0.896679,243,0.235294,4,0.317073,0.764706,0.448276,0.870198,0.708333,0.017521,0.982479,0.291667,0.763284,0.708333,0.71094,0.947427,11.111,0.036,10.63,0.03,17674922,98037001,11836415,?,0.307633
LearningDomainsForNamedEntities_FA_extended_by_types_all_info,2,1,weka.classifiers.trees.RandomForest,'-I 50 -K 15 -S 1 -depth 100',-2260823972777004705,20160421.1234,2593,289,215,74,0,74.394464,25.605536,0,0.727556,0.029409,0.114124,46.698391,64.322495,1282.315105,507.489286,774.825818,4.437076,1.756018,2.681058,833.804211,2.885136,18757.669304,0.705882,12,0.084559,23,0.915441,249,0.294118,5,0.342857,0.705882,0.461538,0.936202,0.743945,0.015219,0.984781,0.256055,0.751727,0.743945,0.733534,0.956802,11.275,0.03,10.82,0.03,17326322,97999620,11873796,?,0.312379
LearningDomainsForNamedEntities_FA_extended_by_types_all_info,2,2,weka.classifiers.trees.RandomForest,'-I 50 -K 15 -S 1 -depth 100',-2260823972777004705,20160421.1234,2593,289,208,81,0,71.972318,28.027682,0,0.701583,0.029461,0.112611,46.781528,63.471775,1281.177298,3660.568307,-2379.391009,4.433139,12.666326,-8.233187,846.506776,2.929089,19041.574598,0.823529,14,0.113971,31,0.886029,241,0.176471,3,0.311111,0.823529,0.451613,0.908196,0.719723,0.017836,0.982164,0.280277,0.751089,0.719723,0.715774,0.962655,11.182,0.032,10.69,0.03,17345965,97999620,11873796,?,0.311994
LearningDomainsForNamedEntities_FA_extended_by_types_all_info,2,3,weka.classifiers.trees.RandomForest,'-I 50 -K 15 -S 1 -depth 100',-2260823972777004705,20160421.1234,2594,288,204,84,0,70.833333,29.166667,0,0.68995,0.029585,0.114531,46.983574,64.560797,1273.738924,2643.40716,-1369.668236,4.422705,9.178497,-4.755792,815.728177,2.83239,18344.379217,0.588235,10,0.088561,24,0.911439,247,0.411765,7,0.294118,0.588235,0.392157,0.908726,0.708333,0.017257,0.982743,0.291667,0.782182,0.708333,0.714916,0.94495,10.999,0.042,10.6,0.03,17748727,98037001,11836415,?,0.311103
LearningDomainsForNamedEntities_FA_extended_by_types_all_info,2,4,weka.classifiers.trees.RandomForest,'-I 50 -K 15 -S 1 -depth 100',-2260823972777004705,20160421.1235,2594,288,206,82,0,71.527778,28.472222,0,0.69732,0.030226,0.1144,47.997239,64.481084,1274.511889,1574.203177,-299.691288,4.425389,5.465983,-1.040595,818.848369,2.843224,18415.798114,0.647059,11,0.077491,21,0.922509,250,0.352941,6,0.34375,0.647059,0.44898,0.928478,0.715278,0.017126,0.982874,0.284722,0.743926,0.715278,0.711671,0.944808,10.712,0.028,10.29,0.03,17386193,98037001,11836415,?,0.305705
LearningDomainsForNamedEntities_FA_extended_by_types_all_info,2,5,weka.classifiers.trees.RandomForest,'-I 50 -K 15 -S 1 -depth 100',-2260823972777004705,20160421.1235,2594,288,211,77,0,73.263889,26.736111,0,0.715598,0.029922,0.114052,47.512452,64.282656,1274.727367,494.255711,780.471656,4.426137,1.716166,2.709971,831.324199,2.886542,18696.723486,0.588235,10,0.066421,18,0.933579,253,0.411765,7,0.357143,0.588235,0.444444,0.910462,0.732639,0.017102,0.982898,0.267361,0.773148,0.732639,0.728105,0.953872,10.217,0.032,9.92,0.03,16779590,98037001,11836415,?,0.301079
LearningDomainsForNamedEntities_FA_extended_by_types_all_info,2,6,weka.classifiers.trees.RandomForest,'-I 50 -K 15 -S 1 -depth 100',-2260823972777004705,20160421.1235,2594,288,204,84,0,70.833333,29.166667,0,0.69012,0.030043,0.114866,47.696773,64.728306,1279.819827,485.645637,794.17419,4.443819,1.68627,2.757549,829.213851,2.879215,18657.497535,0.75,12,0.088235,24,0.911765,248,0.25,4,0.333333,0.75,0.461538,0.967027,0.708333,0.01744,0.98256,0.291667,0.760342,0.708333,0.708543,0.958007,10.605,0.029,10.19,0.03,17573325,98037001,11836415,?,0.309175
LearningDomainsForNamedEntities_FA_extended_by_types_all_info,2,7,weka.classifiers.trees.RandomForest,'-I 50 -K 15 -S 1 -depth 100',-2260823972777004705,20160421.1235,2594,288,203,85,0,70.486111,29.513889,0,0.686335,0.030485,0.116563,48.397946,65.684661,1279.677199,3704.663783,-2424.986584,4.443324,12.863416,-8.420092,817.52761,2.838638,18394.306897,0.8125,13,0.095588,26,0.904412,246,0.1875,3,0.333333,0.8125,0.472727,0.944508,0.704861,0.017711,0.982289,0.295139,0.733081,0.704861,0.698909,0.947555,11.375,0.027,11.02,0.03,17879003,98037001,11836415,?,0.30532
LearningDomainsForNamedEntities_FA_extended_by_types_all_info,2,8,weka.classifiers.trees.RandomForest,'-I 50 -K 15 -S 1 -depth 100',-2260823972777004705,20160421.1235,2594,288,199,89,0,69.097222,30.902778,0,0.671599,0.030941,0.118322,49.127381,66.684092,1278.613327,2648.019125,-1369.405798,4.43963,9.194511,-4.754881,805.24305,2.795983,18116.221838,0.5625,9,0.055147,15,0.944853,257,0.4375,7,0.375,0.5625,0.45,0.941406,0.690972,0.018665,0.981335,0.309028,0.714715,0.690972,0.686956,0.944792,12.649,0.053,11.08,0.04,17780059,98037001,11836415,?,0.303007
LearningDomainsForNamedEntities_FA_extended_by_types_all_info,2,9,weka.classifiers.trees.RandomForest,'-I 50 -K 15 -S 1 -depth 100',-2260823972777004705,20160421.1236,2594,288,191,97,0,66.319444,33.680556,0,0.641105,0.033186,0.122329,52.6931,68.944184,1277.577819,2694.56583,-1416.988011,4.436034,9.356131,-4.920097,767.675296,2.665539,17269.523371,0.625,10,0.088235,24,0.911765,248,0.375,6,0.294118,0.625,0.4,0.922335,0.663194,0.02172,0.97828,0.336806,0.708254,0.663194,0.655083,0.940594,12.184,0.036,11.04,0.04,17206884,98037001,11836415,?,0.303778
LearningDomainsForNamedEntities_FA_extended_by_types_all_info,2,10,weka.classifiers.trees.RandomForest,'-I 50 -K 15 -S 1 -depth 100',-2260823972777004705,20160421.1236,2594,288,200,88,0,69.444444,30.555556,0,0.675027,0.030535,0.116839,48.487496,65.854425,1277.330826,2660.704444,-1383.373618,4.435176,9.238557,-4.803381,798.188242,2.771487,17955.582794,0.764706,13,0.114391,31,0.885609,240,0.235294,4,0.295455,0.764706,0.42623,0.941611,0.694444,0.018272,0.981728,0.305556,0.768255,0.694444,0.702196,0.944933,12.669,0.03,10.99,0.03,17540929,98037001,11836415,?,0.302236
LearningDomainsForNamedEntities_FA_extended_by_types_all_info,1,1,weka.classifiers.trees.RandomForest,'-I 100 -K 15 -S 1 -depth 100',-2260823972777004705,20160421.1236,2593,289,220,69,0,76.124567,23.875433,0,0.74624,0.028306,0.10948,44.940534,61.695347,1284.058497,430.905174,853.153323,4.443109,1.491021,2.952088,874.15943,3.024773,19668.383225,0.823529,14,0.058824,16,0.941176,256,0.176471,3,0.466667,0.823529,0.595745,0.98378,0.761246,0.01449,0.98551,0.238754,0.800455,0.761246,0.75361,0.971529,22.618,0.072,21.07,0.07,33290082,97999620,11873796,?,0.295796
LearningDomainsForNamedEntities_FA_extended_by_types_all_info,1,2,weka.classifiers.trees.RandomForest,'-I 100 -K 15 -S 1 -depth 100',-2260823972777004705,20160421.1237,2593,289,223,66,0,77.16263,22.83737,0,0.757186,0.028317,0.109704,44.950646,61.810802,1284.276795,458.289252,825.987543,4.443864,1.585776,2.858088,864.97875,2.993006,19462.096454,0.882353,15,0.080882,22,0.919118,250,0.117647,2,0.405405,0.882353,0.555556,0.94734,0.771626,0.014487,0.985513,0.228374,0.830619,0.771626,0.772328,0.961096,25.155,0.081,23.06,0.08,33886902,97999620,11873796,?,0.300039
LearningDomainsForNamedEntities_FA_extended_by_types_all_info,1,3,weka.classifiers.trees.RandomForest,'-I 100 -K 15 -S 1 -depth 100',-2260823972777004705,20160421.1237,2594,288,222,66,0,77.083333,22.916667,0,0.756501,0.029129,0.110261,46.255564,62.147511,1275.19771,2587.009513,-1311.811803,4.42777,8.982672,-4.554902,860.75393,2.988729,19359.344995,0.6875,11,0.069853,19,0.930147,253,0.3125,5,0.366667,0.6875,0.478261,0.945772,0.770833,0.0139,0.9861,0.229167,0.79989,0.770833,0.764461,0.959172,28.298,0.079,26.68,0.07,33652032,98037001,11836415,?,0.304934
LearningDomainsForNamedEntities_FA_extended_by_types_all_info,1,4,weka.classifiers.trees.RandomForest,'-I 100 -K 15 -S 1 -depth 100',-2260823972777004705,20160421.1238,2594,288,194,94,0,67.361111,32.638889,0,0.653234,0.032816,0.120842,52.103229,68.101539,1277.407595,526.452151,750.955444,4.435443,1.827959,2.607484,781.439184,2.713331,17578.823334,0.5,8,0.095588,26,0.904412,246,0.5,8,0.235294,0.5,0.32,0.887408,0.673611,0.020148,0.979852,0.326389,0.747262,0.673611,0.686747,0.944062,27.278,0.078,25.94,0.08,33902761,98037001,11836415,?,0.291827
LearningDomainsForNamedEntities_FA_extended_by_types_all_info,1,5,weka.classifiers.trees.RandomForest,'-I 100 -K 15 -S 1 -depth 100',-2260823972777004705,20160421.1238,2594,288,212,76,0,73.611111,26.388889,0,0.719226,0.030341,0.113582,48.175304,64.013116,1277.771929,462.002151,815.769778,4.436708,1.604174,2.832534,833.514049,2.894146,18750.975158,0.8125,13,0.095588,26,0.904412,246,0.1875,3,0.333333,0.8125,0.472727,0.948989,0.736111,0.017082,0.982918,0.263889,0.781167,0.736111,0.733259,0.961846,28.568,0.068,26.32,0.06,33660878,98037001,11836415,?,0.291827
LearningDomainsForNamedEntities_FA_extended_by_types_all_info,1,6,weka.classifiers.trees.RandomForest,'-I 100 -K 15 -S 1 -depth 100',-2260823972777004705,20160421.1239,2594,288,216,72,0,75,25,0,0.734368,0.028027,0.109507,44.499509,61.714546,1277.957784,429.960706,847.997077,4.437353,1.492919,2.944434,868.145143,3.014393,19530.367331,0.8125,13,0.066176,18,0.933824,254,0.1875,3,0.419355,0.8125,0.553191,0.966797,0.75,0.015093,0.984907,0.25,0.78066,0.75,0.748959,0.970389,26.873,0.089,25.91,0.08,33933545,98037001,11836415,?,0.298766
LearningDomainsForNamedEntities_FA_extended_by_types_all_info,1,7,weka.classifiers.trees.RandomForest,'-I 100 -K 15 -S 1 -depth 100',-2260823972777004705,20160421.1239,2594,288,195,93,0,67.708333,32.291667,0,0.65575,0.031916,0.120064,50.684952,67.679786,1275.620498,2693.514965,-1417.894467,4.429238,9.352483,-4.923245,765.373788,2.657548,17214.904117,0.647059,11,0.081181,22,0.918819,249,0.352941,6,0.333333,0.647059,0.44,0.953875,0.677083,0.019724,0.980276,0.322917,0.674697,0.677083,0.657381,0.940447,28.938,0.078,27.37,0.07,33319707,98037001,11836415,?,0.289514
LearningDomainsForNamedEntities_FA_extended_by_types_all_info,1,8,weka.classifiers.trees.RandomForest,'-I 100 -K 15 -S 1 -depth 100',-2260823972777004705,20160421.124,2594,288,189,99,0,65.625,34.375,0,0.63347,0.032254,0.120571,51.222637,67.967797,1274.970689,564.826707,710.143982,4.426982,1.961204,2.465778,761.860717,2.64535,17134.930789,0.705882,12,0.103321,28,0.896679,243,0.294118,5,0.3,0.705882,0.421053,0.897439,0.65625,0.021393,0.978607,0.34375,0.671341,0.65625,0.641975,0.937794,33.052,0.121,26.72,0.09,34636240,98037001,11836415,?,0.2899
LearningDomainsForNamedEntities_FA_extended_by_types_all_info,1,9,weka.classifiers.trees.RandomForest,'-I 100 -K 15 -S 1 -depth 100',-2260823972777004705,20160421.124,2594,288,188,100,0,65.277778,34.722222,0,0.630684,0.03179,0.120519,50.486234,67.938296,1274.970689,3742.870641,-2467.899952,4.426982,12.996079,-8.569097,783.101806,2.719103,17612.661947,0.705882,12,0.099631,27,0.900369,244,0.294118,5,0.307692,0.705882,0.428571,0.929564,0.652778,0.020823,0.979177,0.347222,0.726263,0.652778,0.658888,0.937675,23.044,0.108,21.03,0.09,34213881,98037001,11836415,?,0.291056
LearningDomainsForNamedEntities_FA_extended_by_types_all_info,1,10,weka.classifiers.trees.RandomForest,'-I 100 -K 15 -S 1 -depth 100',-2260823972777004705,20160421.124,2594,288,206,82,0,71.527778,28.472222,0,0.697475,0.030265,0.116811,48.056982,65.836875,1277.257394,1573.528698,-296.271304,4.434922,5.463641,-1.02872,800.187396,2.778428,18000.396808,0.764706,13,0.110701,30,0.889299,241,0.235294,4,0.302326,0.764706,0.433333,0.875624,0.715278,0.016548,0.983452,0.284722,0.768477,0.715278,0.719034,0.947961,25.282,0.088,21.68,0.08,33795908,98037001,11836415,?,0.296839
LearningDomainsForNamedEntities_FA_extended_by_types_all_info,2,1,weka.classifiers.trees.RandomForest,'-I 100 -K 15 -S 1 -depth 100',-2260823972777004705,20160421.1241,2593,289,212,77,0,73.356401,26.643599,0,0.716504,0.029427,0.114243,46.726201,64.389194,1282.315105,497.136473,785.178632,4.437076,1.720195,2.716881,831.410923,2.876854,18703.828719,0.647059,11,0.084559,23,0.915441,249,0.352941,6,0.323529,0.647059,0.431373,0.933607,0.733564,0.015988,0.984012,0.266436,0.74126,0.733564,0.723307,0.959024,24.791,0.084,22.35,0.08,33819797,97999620,11873796,?,0.30081
LearningDomainsForNamedEntities_FA_extended_by_types_all_info,2,2,weka.classifiers.trees.RandomForest,'-I 100 -K 15 -S 1 -depth 100',-2260823972777004705,20160421.1241,2593,289,214,75,0,74.048443,25.951557,0,0.723959,0.02925,0.111521,46.446894,62.857897,1281.177298,2578.168312,-1296.991014,4.433139,8.920998,-4.487858,855.050387,2.958652,19233.757119,0.823529,14,0.091912,25,0.908088,247,0.176471,3,0.358974,0.823529,0.5,0.908629,0.740484,0.015995,0.984005,0.259516,0.779929,0.740484,0.739461,0.967877,25.537,0.225,22.57,0.1,33571219,97999620,11873796,?,0.297339
LearningDomainsForNamedEntities_FA_extended_by_types_all_info,2,3,weka.classifiers.trees.RandomForest,'-I 100 -K 15 -S 1 -depth 100',-2260823972777004705,20160421.1242,2594,288,206,82,0,71.527778,28.472222,0,0.697114,0.029732,0.114353,47.216422,64.460326,1273.738924,1574.375241,-300.636317,4.422705,5.466581,-1.043876,812.171251,2.820039,18264.389826,0.588235,10,0.088561,24,0.911439,247,0.411765,7,0.294118,0.588235,0.392157,0.91285,0.715278,0.017498,0.982502,0.284722,0.785556,0.715278,0.719805,0.947642,23.903,0.067,21.42,0.06,34077343,98037001,11836415,?,0.289514
LearningDomainsForNamedEntities_FA_extended_by_types_all_info,2,4,weka.classifiers.trees.RandomForest,'-I 100 -K 15 -S 1 -depth 100',-2260823972777004705,20160421.1242,2594,288,209,79,0,72.569444,27.430556,0,0.708498,0.030252,0.113875,48.039496,64.185574,1274.511889,511.843819,762.66807,4.425389,1.777235,2.648153,818.632818,2.842475,18410.950396,0.647059,11,0.070111,19,0.929889,252,0.352941,6,0.366667,0.647059,0.468085,0.935424,0.725694,0.015973,0.984027,0.274306,0.763979,0.725694,0.722158,0.946697,21.668,0.079,20.48,0.07,33364494,98037001,11836415,?,0.29761
LearningDomainsForNamedEntities_FA_extended_by_types_all_info,2,5,weka.classifiers.trees.RandomForest,'-I 100 -K 15 -S 1 -depth 100',-2260823972777004705,20160421.1242,2594,288,213,75,0,73.958333,26.041667,0,0.722928,0.029759,0.113155,47.254514,63.777409,1274.727367,481.155009,793.572358,4.426137,1.670677,2.75546,836.70827,2.905237,18817.812802,0.647059,11,0.073801,20,0.926199,251,0.352941,6,0.354839,0.647059,0.458333,0.922184,0.739583,0.017011,0.982989,0.260417,0.799965,0.739583,0.737661,0.95778,21.679,0.085,20.42,0.07,32686055,98037001,11836415,?,0.292598
LearningDomainsForNamedEntities_FA_extended_by_types_all_info,2,6,weka.classifiers.trees.RandomForest,'-I 100 -K 15 -S 1 -depth 100',-2260823972777004705,20160421.1243,2594,288,206,82,0,71.527778,28.472222,0,0.697448,0.030326,0.115132,48.14586,64.877851,1279.819827,488.114351,791.705477,4.443819,1.694841,2.748977,824.107962,2.861486,18542.613874,0.75,12,0.091912,25,0.908088,247,0.25,4,0.324324,0.75,0.45283,0.965418,0.715278,0.017174,0.982826,0.284722,0.777804,0.715278,0.719902,0.959293,21.997,0.09,20.53,0.08,33639583,98037001,11836415,?,0.295682
LearningDomainsForNamedEntities_FA_extended_by_types_all_info,2,7,weka.classifiers.trees.RandomForest,'-I 100 -K 15 -S 1 -depth 100',-2260823972777004705,20160421.1243,2594,288,205,83,0,71.180556,28.819444,0,0.693582,0.030647,0.116421,48.655361,65.604952,1279.677199,1562.650967,-282.973768,4.443324,5.425871,-0.982548,814.731054,2.828927,18331.384595,0.8125,13,0.088235,24,0.911765,248,0.1875,3,0.351351,0.8125,0.490566,0.949793,0.711806,0.017911,0.982089,0.288194,0.749791,0.711806,0.705884,0.953621,22.311,0.082,21.45,0.08,33879034,98037001,11836415,?,0.293369
LearningDomainsForNamedEntities_FA_extended_by_types_all_info,2,8,weka.classifiers.trees.RandomForest,'-I 100 -K 15 -S 1 -depth 100',-2260823972777004705,20160421.1244,2594,288,198,90,0,68.75,31.25,0,0.667705,0.030862,0.11723,49.002292,66.068484,1278.613327,1571.026718,-292.413391,4.43963,5.454954,-1.015324,809.35627,2.810265,18208.760367,0.5625,9,0.069853,19,0.930147,253,0.4375,7,0.321429,0.5625,0.409091,0.948874,0.6875,0.019289,0.980711,0.3125,0.723741,0.6875,0.687368,0.950442,22.042,0.103,20.78,0.09,33743493,98037001,11836415,?,0.289129
LearningDomainsForNamedEntities_FA_extended_by_types_all_info,2,9,weka.classifiers.trees.RandomForest,'-I 100 -K 15 -S 1 -depth 100',-2260823972777004705,20160421.1244,2594,288,196,92,0,68.055556,31.944444,0,0.659854,0.033051,0.121152,52.479695,68.281299,1277.577819,2683.610082,-1406.032263,4.436034,9.318091,-4.882056,775.92591,2.694187,17455.128099,0.6875,11,0.084559,23,0.915441,249,0.3125,5,0.323529,0.6875,0.44,0.93704,0.680556,0.02007,0.97993,0.319444,0.739803,0.680556,0.678195,0.943154,21.956,0.093,20.72,0.08,33324814,98037001,11836415,?,0.288358
LearningDomainsForNamedEntities_FA_extended_by_types_all_info,2,10,weka.classifiers.trees.RandomForest,'-I 100 -K 15 -S 1 -depth 100',-2260823972777004705,20160421.1244,2594,288,200,88,0,69.444444,30.555556,0,0.674981,0.030356,0.116046,48.202528,65.407734,1277.330826,528.610724,748.720102,4.435176,1.835454,2.599723,803.201652,2.788895,18068.361589,0.823529,14,0.121771,33,0.878229,238,0.176471,3,0.297872,0.823529,0.4375,0.939874,0.694444,0.018527,0.981473,0.305556,0.765158,0.694444,0.699349,0.94727,23.31,0.081,21.72,0.07,34209815,98037001,11836415,?,0.292213
LearningDomainsForNamedEntities_FA_extended_by_types_all_info,1,1,weka.classifiers.trees.RandomForest,'-I 150 -K 15 -S 1 -depth 100',-2260823972777004705,20160421.1245,2593,289,219,70,0,75.778547,24.221453,0,0.742588,0.028153,0.109219,44.697849,61.548519,1284.058497,433.421328,850.637169,4.443109,1.499728,2.943381,873.528665,3.022591,19654.191161,0.823529,14,0.069853,19,0.930147,253,0.176471,3,0.424242,0.823529,0.56,0.984213,0.757785,0.014502,0.985498,0.242215,0.78631,0.757785,0.750507,0.970916,35.813,0.134,33.14,0.13,50204119,97999620,11873796,?,0.296182
LearningDomainsForNamedEntities_FA_extended_by_types_all_info,1,2,weka.classifiers.trees.RandomForest,'-I 150 -K 15 -S 1 -depth 100',-2260823972777004705,20160421.1246,2593,289,223,66,0,77.16263,22.83737,0,0.757273,0.028351,0.109576,45.00442,61.738703,1284.276795,452.373863,831.902932,4.443864,1.565307,2.878557,866.235355,2.997354,19490.370161,0.823529,14,0.084559,23,0.915441,249,0.176471,3,0.378378,0.823529,0.518519,0.947124,0.771626,0.014442,0.985558,0.228374,0.838339,0.771626,0.776962,0.963627,32.911,0.129,31.37,0.13,50071308,97999620,11873796,?,0.29811
LearningDomainsForNamedEntities_FA_extended_by_types_all_info,1,3,weka.classifiers.trees.RandomForest,'-I 150 -K 15 -S 1 -depth 100',-2260823972777004705,20160421.1246,2594,288,222,66,0,77.083333,22.916667,0,0.756448,0.029092,0.110177,46.196907,62.100198,1275.19771,2582.454458,-1307.256748,4.42777,8.966856,-4.539086,860.381614,2.987436,19350.971182,0.6875,11,0.069853,19,0.930147,253,0.3125,5,0.366667,0.6875,0.478261,0.948759,0.770833,0.014034,0.985966,0.229167,0.798718,0.770833,0.764443,0.960215,32.312,0.123,30.87,0.12,50120707,98037001,11836415,?,0.299152
LearningDomainsForNamedEntities_FA_extended_by_types_all_info,1,4,weka.classifiers.trees.RandomForest,'-I 150 -K 15 -S 1 -depth 100',-2260823972777004705,20160421.1247,2594,288,197,91,0,68.402778,31.597222,0,0.664353,0.032809,0.12048,52.091765,67.89736,1277.407595,521.794318,755.613277,4.435443,1.811786,2.623657,783.056295,2.718945,17615.200969,0.5,8,0.091912,25,0.908088,247,0.5,8,0.242424,0.5,0.326531,0.890395,0.684028,0.019253,0.980747,0.315972,0.757316,0.684028,0.696978,0.947256,31.213,0.142,30.1,0.13,50329819,98037001,11836415,?,0.292213
LearningDomainsForNamedEntities_FA_extended_by_types_all_info,1,5,weka.classifiers.trees.RandomForest,'-I 150 -K 15 -S 1 -depth 100',-2260823972777004705,20160421.1247,2594,288,211,77,0,73.263889,26.736111,0,0.715488,0.030297,0.113475,48.105435,63.952878,1277.771929,459.878411,817.893518,4.436708,1.5968,2.839908,834.687664,2.898221,18777.377138,0.8125,13,0.095588,26,0.904412,246,0.1875,3,0.333333,0.8125,0.472727,0.948874,0.732639,0.017426,0.982574,0.267361,0.776937,0.732639,0.726017,0.963255,31.651,0.13,30.6,0.12,50515393,98037001,11836415,?,0.291056
LearningDomainsForNamedEntities_FA_extended_by_types_all_info,1,6,weka.classifiers.trees.RandomForest,'-I 150 -K 15 -S 1 -depth 100',-2260823972777004705,20160421.1248,2594,288,216,72,0,75,25,0,0.734242,0.027999,0.109319,44.455947,61.608711,1277.957784,430.315957,847.641827,4.437353,1.494153,2.943201,867.176891,3.011031,19508.584894,0.8125,13,0.073529,20,0.926471,252,0.1875,3,0.393939,0.8125,0.530612,0.966682,0.75,0.015397,0.984603,0.25,0.785727,0.75,0.749699,0.969838,31.917,0.116,30.61,0.11,49987154,98037001,11836415,?,0.30185
LearningDomainsForNamedEntities_FA_extended_by_types_all_info,1,7,weka.classifiers.trees.RandomForest,'-I 150 -K 15 -S 1 -depth 100',-2260823972777004705,20160421.1248,2594,288,193,95,0,67.013889,32.986111,0,0.648243,0.032106,0.120256,50.986293,67.787944,1275.620498,2693.431333,-1417.810835,4.429238,9.352192,-4.922954,762.552902,2.647753,17151.456317,0.588235,10,0.095941,26,0.904059,245,0.411765,7,0.277778,0.588235,0.377358,0.952355,0.670139,0.020518,0.979482,0.329861,0.674526,0.670139,0.652915,0.940365,31.301,0.126,30.3,0.13,49259736,98037001,11836415,?,0.283732
LearningDomainsForNamedEntities_FA_extended_by_types_all_info,1,8,weka.classifiers.trees.RandomForest,'-I 150 -K 15 -S 1 -depth 100',-2260823972777004705,20160421.1249,2594,288,190,98,0,65.972222,34.027778,0,0.637135,0.032251,0.120492,51.21817,67.923125,1274.970689,560.645561,714.325128,4.426982,1.946686,2.480296,761.059085,2.642566,17116.90137,0.705882,12,0.095941,26,0.904059,245,0.294118,5,0.315789,0.705882,0.436364,0.901129,0.659722,0.021198,0.978802,0.340278,0.675464,0.659722,0.64524,0.939593,31.731,0.125,30.69,0.12,51438177,98037001,11836415,?,0.286045
LearningDomainsForNamedEntities_FA_extended_by_types_all_info,1,9,weka.classifiers.trees.RandomForest,'-I 150 -K 15 -S 1 -depth 100',-2260823972777004705,20160421.1249,2594,288,191,97,0,66.319444,33.680556,0,0.641796,0.031782,0.120035,50.473838,67.665778,1274.970689,3735.682885,-2460.712196,4.426982,12.971121,-8.54414,784.385852,2.723562,17641.541291,0.705882,12,0.103321,28,0.896679,243,0.294118,5,0.3,0.705882,0.421053,0.929021,0.663194,0.020256,0.979744,0.336806,0.743024,0.663194,0.670953,0.939518,31.566,0.127,30.25,0.13,50897856,98037001,11836415,?,0.28643
LearningDomainsForNamedEntities_FA_extended_by_types_all_info,1,10,weka.classifiers.trees.RandomForest,'-I 150 -K 15 -S 1 -depth 100',-2260823972777004705,20160421.125,2594,288,203,85,0,70.486111,29.513889,0,0.686174,0.030323,0.117069,48.149211,65.982513,1277.257394,1577.702409,-300.445015,4.434922,5.478133,-1.043212,796.206595,2.764606,17910.847793,0.764706,13,0.110701,30,0.889299,241,0.235294,4,0.302326,0.764706,0.433333,0.877361,0.704861,0.017744,0.982256,0.295139,0.750937,0.704861,0.705008,0.948233,30.711,0.134,29.46,0.11,50442969,98037001,11836415,?,0.286816
LearningDomainsForNamedEntities_FA_extended_by_types_all_info,2,1,weka.classifiers.trees.RandomForest,'-I 150 -K 15 -S 1 -depth 100',-2260823972777004705,20160421.125,2593,289,215,74,0,74.394464,25.605536,0,0.727511,0.029471,0.114209,46.79653,64.370197,1282.315105,501.393031,780.922074,4.437076,1.734924,2.702153,830.798782,2.874736,18690.0577,0.647059,11,0.084559,23,0.915441,249,0.352941,6,0.323529,0.647059,0.431373,0.936851,0.743945,0.015391,0.984609,0.256055,0.755863,0.743945,0.732241,0.958579,31.934,0.117,30.7,0.11,50079176,97999620,11873796,?,0.292711
LearningDomainsForNamedEntities_FA_extended_by_types_all_info,2,2,weka.classifiers.trees.RandomForest,'-I 150 -K 15 -S 1 -depth 100',-2260823972777004705,20160421.1251,2593,289,216,73,0,74.740484,25.259516,0,0.731224,0.0293,0.111694,46.525637,62.955097,1281.177298,1513.633656,-232.456358,4.433139,5.237487,-0.804347,852.961814,2.951425,19186.776147,0.823529,14,0.088235,24,0.911765,248,0.176471,3,0.368421,0.823529,0.509091,0.919983,0.747405,0.015744,0.984256,0.252595,0.785485,0.747405,0.74361,0.968318,32.292,0.118,31.04,0.11,49949543,97999620,11873796,?,0.295025
LearningDomainsForNamedEntities_FA_extended_by_types_all_info,2,3,weka.classifiers.trees.RandomForest,'-I 150 -K 15 -S 1 -depth 100',-2260823972777004705,20160421.1252,2594,288,206,82,0,71.527778,28.472222,0,0.697029,0.02985,0.114502,47.404714,64.544559,1273.738924,1575.07169,-301.332766,4.422705,5.468999,-1.046294,810.936588,2.815752,18236.624308,0.588235,10,0.084871,23,0.915129,248,0.411765,7,0.30303,0.588235,0.4,0.904168,0.715278,0.017805,0.982195,0.284722,0.780546,0.715278,0.718949,0.946724,33.2,0.152,31.78,0.15,50761508,98037001,11836415,?,0.28643
LearningDomainsForNamedEntities_FA_extended_by_types_all_info,2,4,weka.classifiers.trees.RandomForest,'-I 150 -K 15 -S 1 -depth 100',-2260823972777004705,20160421.1252,2594,288,210,78,0,72.916667,27.083333,0,0.711897,0.030144,0.11352,47.866579,63.985291,1274.511889,510.818008,763.693881,4.425389,1.773674,2.651715,819.762179,2.846396,18436.349567,0.647059,11,0.070111,19,0.929889,252,0.352941,6,0.366667,0.647059,0.468085,0.937703,0.729167,0.01636,0.98364,0.270833,0.747472,0.729167,0.72032,0.945856,33.973,0.143,31.47,0.14,49650207,98037001,11836415,?,0.292213
LearningDomainsForNamedEntities_FA_extended_by_types_all_info,2,5,weka.classifiers.trees.RandomForest,'-I 150 -K 15 -S 1 -depth 100',-2260823972777004705,20160421.1253,2594,288,218,70,0,75.694444,24.305556,0,0.741519,0.029725,0.112942,47.20098,63.657328,1274.727367,471.091442,803.635925,4.426137,1.635734,2.790403,837.208259,2.906973,18829.057692,0.705882,12,0.066421,18,0.933579,253,0.294118,5,0.4,0.705882,0.510638,0.926525,0.756944,0.015631,0.984369,0.243056,0.807472,0.756944,0.753577,0.961129,34.038,0.153,31.86,0.13,48944818,98037001,11836415,?,0.28643
LearningDomainsForNamedEntities_FA_extended_by_types_all_info,2,6,weka.classifiers.trees.RandomForest,'-I 150 -K 15 -S 1 -depth 100',-2260823972777004705,20160421.1253,2594,288,206,82,0,71.527778,28.472222,0,0.69744,0.030247,0.114727,48.020006,64.649866,1279.819827,485.655718,794.164109,4.443819,1.686305,2.757514,828.457726,2.876589,18640.484551,0.75,12,0.088235,24,0.911765,248,0.25,4,0.333333,0.75,0.461538,0.964499,0.715278,0.017241,0.982759,0.284722,0.775971,0.715278,0.71714,0.961067,34.196,0.162,32.34,0.16,50510590,98037001,11836415,?,0.294526
LearningDomainsForNamedEntities_FA_extended_by_types_all_info,2,7,weka.classifiers.trees.RandomForest,'-I 150 -K 15 -S 1 -depth 100',-2260823972777004705,20160421.1254,2594,288,205,83,0,71.180556,28.819444,0,0.693766,0.030636,0.115923,48.637554,65.32435,1279.677199,1556.252095,-276.574896,4.443324,5.403653,-0.96033,820.408444,2.84864,18459.125435,0.8125,13,0.084559,23,0.915441,249,0.1875,3,0.361111,0.8125,0.5,0.948874,0.711806,0.017501,0.982499,0.288194,0.762222,0.711806,0.709054,0.954518,34.462,0.151,32.51,0.14,49909419,98037001,11836415,?,0.290671
LearningDomainsForNamedEntities_FA_extended_by_types_all_info,2,8,weka.classifiers.trees.RandomForest,'-I 150 -K 15 -S 1 -depth 100',-2260823972777004705,20160421.1254,2594,288,201,87,0,69.791667,30.208333,0,0.678835,0.030805,0.117004,48.911336,65.94115,1278.613327,1563.231564,-284.618237,4.43963,5.427887,-0.988258,811.973595,2.819353,18267.644514,0.6875,11,0.073529,20,0.926471,252,0.3125,5,0.354839,0.6875,0.468085,0.944278,0.697917,0.018568,0.981432,0.302083,0.736928,0.697917,0.697386,0.953075,35.136,0.145,32.38,0.14,50018753,98037001,11836415,?,0.284503
LearningDomainsForNamedEntities_FA_extended_by_types_all_info,2,9,weka.classifiers.trees.RandomForest,'-I 150 -K 15 -S 1 -depth 100',-2260823972777004705,20160421.1255,2594,288,196,92,0,68.055556,31.944444,0,0.65978,0.032948,0.120845,52.316329,68.107807,1277.577819,2681.265051,-1403.687232,4.436034,9.309948,-4.873914,778.047653,2.701554,17502.858551,0.6875,11,0.088235,24,0.911765,248,0.3125,5,0.314286,0.6875,0.431373,0.941406,0.680556,0.020256,0.979744,0.319444,0.738169,0.680556,0.677969,0.94378,34.61,0.168,32.42,0.16,49759912,98037001,11836415,?,0.285659
LearningDomainsForNamedEntities_FA_extended_by_types_all_info,2,10,weka.classifiers.trees.RandomForest,'-I 150 -K 15 -S 1 -depth 100',-2260823972777004705,20160421.1256,2594,288,201,87,0,69.791667,30.208333,0,0.678712,0.030213,0.115482,47.975144,65.089402,1277.330826,516.775497,760.55533,4.435176,1.794359,2.640817,805.48869,2.796836,18119.80947,0.764706,13,0.103321,28,0.896679,243,0.235294,4,0.317073,0.764706,0.448276,0.941394,0.697917,0.018175,0.981825,0.302083,0.755005,0.697917,0.700272,0.94907,35.327,0.13,33.26,0.13,50719945,98037001,11836415,?,0.291056
