@RELATION DBpediaDomainClassifier_predicates_MyEntites

@ATTRIBUTE 'is http://dbpedia.org/property/athletics' {f,t}
@ATTRIBUTE 'is http://dbpedia.org/ontology/product' {f,t}
@ATTRIBUTE 'is http://dbpedia.org/ontology/tenant' {f,t}
@ATTRIBUTE 'is http://dbpedia.org/property/silver' {f,t}
@ATTRIBUTE ' http://purl.org/dc/elements/1.1/description' {f,t}
@ATTRIBUTE 'is http://dbpedia.org/property/after' {f,t}
@ATTRIBUTE 'is http://dbpedia.org/ontology/sport' {f,t}
@ATTRIBUTE 'is http://dbpedia.org/property/category' {f,t}
@ATTRIBUTE 'is http://dbpedia.org/property/sports' {f,t}
@ATTRIBUTE 'is http://dbpedia.org/ontology/event' {f,t}
@ATTRIBUTE ' http://dbpedia.org/property/shortDescription' {f,t}
@ATTRIBUTE 'is http://dbpedia.org/ontology/type' {f,t}
@ATTRIBUTE 'is http://dbpedia.org/property/flagbearer' {f,t}
@ATTRIBUTE ' http://dbpedia.org/property/name' {f,t}
@ATTRIBUTE ' http://dbpedia.org/property/caption' {f,t}
@ATTRIBUTE 'is http://dbpedia.org/property/knownFor' {f,t}
@ATTRIBUTE 'is http://dbpedia.org/ontology/nonFictionSubject' {f,t}
@ATTRIBUTE 'is http://dbpedia.org/property/data' {f,t}
@ATTRIBUTE 'is http://dbpedia.org/property/tenants' {f,t}
@ATTRIBUTE ' http://xmlns.com/foaf/0.1/givenName' {f,t}
@ATTRIBUTE 'is http://dbpedia.org/ontology/athletics' {f,t}
@ATTRIBUTE 'is http://dbpedia.org/property/use' {f,t}
@ATTRIBUTE 'is http://dbpedia.org/property/sport' {f,t}
@ATTRIBUTE ' http://dbpedia.org/property/team' {f,t}
@ATTRIBUTE ' http://dbpedia.org/property/birthDate' {f,t}
@ATTRIBUTE ' http://dbpedia.org/property/wordnet_type' {f,t}
@ATTRIBUTE ' http://dbpedia.org/property/olympic' {f,t}
@ATTRIBUTE 'is http://dbpedia.org/property/before' {f,t}
@ATTRIBUTE 'is http://dbpedia.org/property/subject' {f,t}
@ATTRIBUTE 'is http://dbpedia.org/ontology/profession' {f,t}
@ATTRIBUTE ' http://dbpedia.org/property/contact' {f,t}
@ATTRIBUTE ' http://xmlns.com/foaf/0.1/homepage' {f,t}
@ATTRIBUTE ' http://xmlns.com/foaf/0.1/name' {f,t}
@ATTRIBUTE 'is http://dbpedia.org/ontology/knownFor' {f,t}
@ATTRIBUTE 'is http://dbpedia.org/ontology/industry' {f,t}
@ATTRIBUTE 'is http://dbpedia.org/property/teams' {f,t}
@ATTRIBUTE ' http://dbpedia.org/ontology/Person/height' {f,t}
@ATTRIBUTE 'is http://dbpedia.org/property/format' {f,t}
@ATTRIBUTE ' http://dbpedia.org/ontology/sportGoverningBody' {f,t}
@ATTRIBUTE 'is http://dbpedia.org/ontology/genre' {f,t}
@ATTRIBUTE ' http://dbpedia.org/ontology/birthDate' {f,t}
@ATTRIBUTE 'is http://dbpedia.org/property/position' {f,t}
@ATTRIBUTE 'is http://dbpedia.org/property/occupation' {f,t}
@ATTRIBUTE ' http://dbpedia.org/ontology/birthPlace' {f,t}
@ATTRIBUTE ' http://dbpedia.org/property/placeOfBirth' {f,t}
@ATTRIBUTE 'is http://dbpedia.org/ontology/position' {f,t}
@ATTRIBUTE 'is http://dbpedia.org/property/profession' {f,t}
@ATTRIBUTE ' http://dbpedia.org/property/first' {f,t}
@ATTRIBUTE 'is http://dbpedia.org/ontology/format' {f,t}
@ATTRIBUTE ' http://xmlns.com/foaf/0.1/surname' {f,t}
@ATTRIBUTE ' http://www.w3.org/2000/01/rdf-schema#seeAlso' {f,t}
@ATTRIBUTE 'is http://dbpedia.org/property/shortDescription' {f,t}
@ATTRIBUTE ' http://dbpedia.org/ontology/teamSize' {f,t}
@ATTRIBUTE 'is http://dbpedia.org/ontology/team' {f,t}
@ATTRIBUTE ' http://dbpedia.org/property/imageSize' {f,t}
@ATTRIBUTE ' http://dbpedia.org/property/union' {f,t}
@ATTRIBUTE ' http://dbpedia.org/property/birthPlace' {f,t}
@ATTRIBUTE ' http://dbpedia.org/property/dateOfBirth' {f,t}
@ATTRIBUTE 'is http://dbpedia.org/property/genre' {f,t}
@ATTRIBUTE 'is http://dbpedia.org/property/title' {f,t}
@ATTRIBUTE 'is http://dbpedia.org/ontology/occupation' {f,t}
@ATTRIBUTE 'is http://dbpedia.org/property/industry' {f,t}
@ATTRIBUTE ' http://dbpedia.org/property/category' {f,t}
@ATTRIBUTE 'is http://dbpedia.org/ontology/ingredient' {f,t}
@ATTRIBUTE ' http://dbpedia.org/property/carbs' {f,t}
@ATTRIBUTE ' http://dbpedia.org/property/country' {f,t}
@ATTRIBUTE ' http://dbpedia.org/property/sugars' {f,t}
@ATTRIBUTE 'is http://dbpedia.org/property/discipline' {f,t}
@ATTRIBUTE 'is http://dbpedia.org/ontology/literaryGenre' {f,t}
@ATTRIBUTE ' http://dbpedia.org/property/note' {f,t}
@ATTRIBUTE ' http://dbpedia.org/property/mainIngredient' {f,t}
@ATTRIBUTE 'is http://dbpedia.org/property/mainIngredient' {f,t}
@ATTRIBUTE ' http://dbpedia.org/property/sodiumMg' {f,t}
@ATTRIBUTE 'is http://www.w3.org/2004/02/skos/core#subject' {f,t}
@ATTRIBUTE ' http://dbpedia.org/property/fat' {f,t}
@ATTRIBUTE 'is http://dbpedia.org/property/hosts' {f,t}
@ATTRIBUTE ' http://dbpedia.org/property/wikt' {f,t}
@ATTRIBUTE ' http://www.w3.org/2002/07/owl#differentFrom' {f,t}
@ATTRIBUTE ' http://dbpedia.org/ontology/origin' {f,t}
@ATTRIBUTE ' http://dbpedia.org/property/protein' {f,t}
@ATTRIBUTE 'is http://dbpedia.org/property/services' {f,t}
@ATTRIBUTE 'is http://dbpedia.org/ontology/academicDiscipline' {f,t}
@ATTRIBUTE ' http://dbpedia.org/property/s' {f,t}
@ATTRIBUTE ' http://dbpedia.org/property/q' {f,t}
@ATTRIBUTE ' http://dbpedia.org/property/v' {f,t}
@ATTRIBUTE ' http://dbpedia.org/property/n' {f,t}
@ATTRIBUTE ' http://dbpedia.org/property/kj' {f,t}
@ATTRIBUTE ' http://dbpedia.org/property/b' {f,t}
@ATTRIBUTE 'is http://dbpedia.org/ontology/service' {f,t}
@ATTRIBUTE ' http://dbpedia.org/property/served' {f,t}
@ATTRIBUTE 'is http://dbpedia.org/property/exportGoods' {f,t}
@ATTRIBUTE 'is http://dbpedia.org/property/aux' {f,t}
@ATTRIBUTE ' http://dbpedia.org/ontology/servingTemperature' {f,t}
@ATTRIBUTE ' http://dbpedia.org/property/commons' {f,t}
@ATTRIBUTE 'is http://dbpedia.org/ontology/field' {f,t}
@ATTRIBUTE ' http://dbpedia.org/ontology/ingredient' {f,t}
@ATTRIBUTE 'is http://dbpedia.org/ontology/locationCountry' {f,t}
@ATTRIBUTE ' http://dbpedia.org/property/fiber' {f,t}
@ATTRIBUTE 'is http://dbpedia.org/property/buildingType' {f,t}
@ATTRIBUTE ' http://dbpedia.org/property/sourceUsda' {f,t}
@ATTRIBUTE ' http://dbpedia.org/ontology/wikiPageDisambiguates' {f,t}
@ATTRIBUTE ' http://dbpedia.org/property/calciumMg' {f,t}
@ATTRIBUTE ' http://dbpedia.org/property/title' {f,t}
@ATTRIBUTE ' http://dbpedia.org/property/ironMg' {f,t}
@ATTRIBUTE 'is http://www.w3.org/2002/07/owl#sameAs' {f,t}
@ATTRIBUTE 'is http://dbpedia.org/property/course' {f,t}
@ATTRIBUTE 'is http://dbpedia.org/property/foodType' {f,t}
@ATTRIBUTE 'is http://www.w3.org/2002/07/owl#differentFrom' {f,t}
@ATTRIBUTE ' http://dbpedia.org/property/type' {f,t}
@ATTRIBUTE 'is http://dbpedia.org/property/extra' {f,t}
@ATTRIBUTE ' http://dbpedia.org/property/description' {f,t}
@ATTRIBUTE 'is http://www.w3.org/2000/01/rdf-schema#seeAlso' {f,t}
@ATTRIBUTE ' http://www.w3.org/1999/02/22-rdf-syntax-ns#type' {f,t}
@ATTRIBUTE 'is http://dbpedia.org/property/instrument' {f,t}
@ATTRIBUTE 'is http://dbpedia.org/ontology/stylisticOrigin' {f,t}
@ATTRIBUTE 'is http://dbpedia.org/property/type' {f,t}
@ATTRIBUTE 'is http://dbpedia.org/ontology/bandMember' {f,t}
@ATTRIBUTE 'is http://dbpedia.org/ontology/programmeFormat' {f,t}
@ATTRIBUTE ' http://dbpedia.org/property/filename' {f,t}
@ATTRIBUTE 'is http://dbpedia.org/property/products' {f,t}
@ATTRIBUTE 'is http://dbpedia.org/ontology/instrument' {f,t}
@ATTRIBUTE ' http://dbpedia.org/ontology/soundRecording' {f,t}
@ATTRIBUTE 'is http://dbpedia.org/ontology/starring' {f,t}
@ATTRIBUTE ' http://dbpedia.org/property/background' {f,t}
@ATTRIBUTE class {sport,food,music}
@DATA
f,t,f,f,f,f,f,t,f,f,f,t,f,f,f,t,t,f,t,f,f,t,f,f,f,f,f,f,t,t,f,f,f,t,t,f,f,t,f,t,f,f,t,f,f,f,t,f,t,f,t,f,f,f,f,f,f,f,t,f,t,t,f,f,f,f,f,f,t,f,f,f,f,t,f,f,f,f,f,f,t,f,f,f,f,f,f,f,f,f,f,f,f,f,t,f,f,f,f,f,f,f,f,f,t,f,f,t,f,f,f,t,t,f,f,t,f,t,f,t,f,f,f,f,sport
t,f,f,f,f,f,t,f,t,t,f,f,t,f,t,t,f,f,f,f,t,f,t,t,f,f,t,f,t,t,t,f,f,t,f,t,f,t,t,t,f,f,t,f,f,t,t,t,t,f,t,t,t,t,f,t,f,f,t,t,t,f,t,f,f,f,f,f,f,f,f,f,f,f,f,f,f,f,f,f,f,f,f,f,f,f,f,f,f,f,f,f,f,f,f,f,f,f,f,f,f,f,f,f,t,f,f,f,f,f,f,t,t,f,f,f,f,f,f,f,f,f,f,f,sport
f,f,t,f,f,f,f,f,f,f,f,f,f,f,f,t,t,t,f,f,f,f,f,f,f,f,f,f,t,f,f,t,f,t,f,f,f,t,f,f,f,f,t,f,f,f,t,f,t,f,f,t,f,t,f,f,f,f,f,f,t,f,f,f,f,f,f,f,f,f,f,f,f,f,f,f,f,f,f,f,f,f,f,f,f,f,f,f,f,f,f,f,f,f,f,f,f,f,f,f,f,f,f,f,t,f,f,f,f,f,f,t,t,f,f,f,f,f,f,f,f,f,f,f,sport
f,f,f,f,t,t,f,f,f,f,t,f,f,t,t,f,f,f,f,t,f,f,f,f,t,t,f,t,f,f,f,t,t,f,f,f,t,f,f,f,t,f,f,t,t,f,f,f,f,t,t,f,f,f,t,f,t,t,f,f,f,f,f,f,f,f,f,f,f,f,f,f,f,f,f,f,f,f,f,f,f,f,f,f,f,f,f,f,f,f,f,f,f,f,f,f,f,f,f,f,f,f,t,f,t,f,f,f,f,f,f,f,t,f,f,f,f,f,f,f,f,f,f,f,sport
f,f,f,f,f,f,f,f,f,f,f,t,f,f,f,f,f,f,f,f,f,f,t,f,f,f,f,f,f,f,f,f,f,f,t,f,f,f,f,t,f,f,f,f,f,f,f,f,f,f,f,f,f,f,f,f,f,f,t,f,f,t,f,f,f,f,f,f,f,f,f,f,f,f,f,f,f,f,f,f,f,f,f,f,f,f,f,f,f,f,f,f,f,f,f,f,f,f,f,f,f,f,f,f,f,f,f,f,f,f,f,t,t,f,f,f,f,f,f,t,f,f,f,f,sport
t,f,f,f,f,f,t,f,t,f,f,f,f,f,f,f,f,f,f,f,t,f,t,f,f,f,f,f,f,f,f,f,f,f,f,f,f,f,f,t,f,f,f,f,f,f,t,f,t,f,t,f,f,f,f,f,f,f,t,t,t,f,f,f,f,f,f,f,f,f,f,f,f,f,f,f,f,f,f,f,t,f,f,f,f,f,f,f,t,f,f,f,f,f,f,f,f,f,f,f,f,f,f,f,f,f,f,f,f,f,f,t,t,f,f,f,f,f,f,f,f,f,f,f,sport
f,f,f,f,t,t,f,f,f,f,t,f,t,t,t,f,f,f,f,t,f,f,f,t,t,t,f,t,f,f,f,f,t,f,f,f,f,f,f,f,t,f,f,t,t,f,f,f,f,t,f,f,f,f,t,f,t,t,f,f,f,f,f,f,f,f,f,f,f,f,f,f,f,f,f,f,f,f,f,f,f,f,f,f,f,f,f,f,f,f,f,f,f,f,f,f,f,f,f,f,f,f,f,f,t,f,f,f,f,f,f,f,t,f,f,f,f,f,f,f,f,f,f,f,sport
t,f,f,f,f,f,t,f,t,f,f,f,f,f,f,f,f,f,f,f,t,t,f,f,f,f,f,f,f,f,f,f,f,f,f,f,f,f,f,f,f,f,f,f,f,f,f,f,f,f,f,f,f,f,f,f,f,f,f,f,f,f,f,f,f,f,f,f,f,f,f,f,f,f,f,f,f,f,f,f,f,f,f,f,f,f,f,f,f,f,f,f,f,f,f,f,f,f,f,f,f,f,f,f,f,f,f,f,f,f,f,t,f,f,f,f,f,f,f,f,f,f,f,f,sport
f,f,f,f,f,f,f,f,f,f,f,f,f,f,f,f,f,f,f,f,f,f,t,f,f,f,f,f,f,f,f,f,f,f,f,f,f,f,f,f,f,f,f,f,f,f,f,f,f,f,f,f,f,f,f,f,f,f,f,f,f,f,f,f,f,f,f,f,f,f,f,f,f,f,f,f,f,f,f,f,f,f,f,f,f,f,f,f,f,f,f,f,f,f,f,f,f,f,f,f,t,f,f,f,t,f,f,f,f,f,f,t,f,f,f,f,f,f,f,f,f,f,f,f,sport
f,f,f,f,f,f,f,f,f,f,f,f,f,f,f,t,f,f,f,f,f,f,f,f,f,f,f,f,f,t,f,f,f,t,f,f,f,f,f,f,f,t,t,f,f,f,t,f,f,f,f,f,f,f,f,f,f,f,f,f,t,f,f,f,f,f,f,f,f,f,f,f,f,f,f,f,f,f,f,f,f,f,f,f,f,f,f,f,f,f,f,f,f,f,t,f,f,f,f,f,f,f,f,f,f,f,f,f,f,f,f,t,f,f,f,f,f,f,f,f,f,f,f,f,sport
f,f,f,f,f,f,f,f,f,f,f,f,f,f,f,f,f,f,f,f,f,t,t,f,f,f,f,f,f,f,f,f,f,f,f,f,f,f,f,f,f,f,f,f,f,f,f,f,f,f,f,f,f,f,f,f,f,f,f,f,f,f,f,f,f,f,f,f,f,f,f,f,f,f,f,f,f,f,f,f,f,f,f,f,f,f,f,f,f,f,f,f,f,f,f,f,f,f,f,f,f,f,f,f,f,f,f,f,f,f,f,f,f,f,f,f,f,f,f,f,f,f,f,f,sport
t,t,t,f,f,f,t,f,t,t,f,f,f,f,t,f,t,t,t,f,t,f,t,t,f,f,t,f,t,t,t,f,f,t,f,t,f,t,t,t,f,t,t,f,f,t,t,t,t,f,t,t,t,t,f,t,f,f,t,f,t,f,t,f,f,f,f,f,f,f,f,f,f,f,f,f,f,f,f,f,f,f,f,f,f,f,f,f,f,f,f,f,f,f,f,f,f,f,f,f,f,f,f,f,t,f,f,f,f,f,f,t,t,f,f,f,f,f,f,f,f,f,f,f,sport
t,t,t,f,f,f,t,f,t,t,f,f,f,f,t,f,f,f,t,f,t,f,t,t,f,f,t,f,f,f,t,f,f,t,f,t,f,f,t,t,f,t,f,f,f,t,f,t,f,f,f,f,t,t,f,t,f,f,t,f,t,f,t,f,f,f,f,f,f,f,f,f,f,f,f,f,f,f,f,f,f,f,f,f,f,f,f,f,f,f,f,f,f,f,f,f,f,f,f,f,f,f,f,f,f,f,f,f,f,f,f,t,t,f,f,f,f,f,f,f,f,f,f,f,sport
f,f,f,f,f,f,f,f,f,f,f,f,f,f,f,f,f,f,f,f,f,f,f,f,f,f,f,f,f,f,f,f,f,f,f,f,f,t,f,f,f,f,f,f,f,f,f,f,f,f,f,f,f,f,f,f,f,f,f,f,f,f,f,f,f,f,f,f,f,f,f,f,f,f,f,f,f,f,f,f,f,f,f,f,f,f,f,f,f,f,f,f,f,f,f,f,f,f,f,f,f,f,f,f,f,f,f,f,f,f,f,t,t,f,f,f,f,f,f,f,f,f,f,f,sport
f,t,f,f,f,f,t,f,f,f,f,f,f,f,f,f,f,f,f,f,f,t,t,f,f,f,f,f,f,f,f,f,f,t,f,f,f,f,f,f,f,t,t,f,f,f,f,f,f,f,f,t,f,t,f,f,f,f,f,f,t,t,f,f,f,f,f,f,f,f,f,f,f,f,f,f,f,f,f,f,f,f,f,f,f,f,f,f,t,f,f,f,f,f,f,f,f,f,f,f,f,f,f,f,t,f,f,t,f,f,f,t,f,f,f,f,f,f,f,f,f,f,f,f,sport
t,f,f,f,f,f,t,t,t,f,f,f,f,f,f,f,f,f,f,f,f,t,t,f,f,f,f,f,f,f,f,f,f,f,t,f,f,f,f,t,f,f,t,f,f,f,t,f,f,f,f,f,f,f,f,f,f,f,t,f,t,t,f,f,f,f,f,f,f,f,f,f,f,f,f,f,f,f,f,f,f,f,f,f,f,f,f,f,f,f,f,f,f,f,f,f,f,f,f,f,f,f,f,f,t,f,f,f,f,f,f,t,f,f,f,f,f,f,f,f,f,f,f,f,sport
f,f,f,t,t,t,f,f,f,f,t,f,t,t,t,f,f,f,f,t,f,f,f,t,t,t,f,t,f,f,f,t,t,f,f,f,t,f,f,f,t,f,f,t,t,f,f,f,f,t,t,f,f,f,f,f,t,t,f,f,f,f,f,f,f,f,f,f,f,f,f,f,f,f,f,f,f,f,f,f,f,f,f,f,f,f,f,f,f,f,f,f,f,f,f,f,f,f,f,f,f,f,t,f,t,f,f,f,f,f,f,f,t,f,f,f,f,f,f,f,f,f,f,f,sport
f,f,f,f,f,f,f,t,f,f,f,t,f,t,f,t,f,t,f,f,f,f,t,f,f,f,f,f,f,f,f,t,f,t,t,f,f,f,f,t,f,f,t,f,f,f,f,f,f,f,t,f,f,f,f,f,f,f,t,t,t,t,t,f,f,f,f,f,f,f,f,f,f,f,f,f,f,f,f,f,f,f,f,f,f,f,f,f,f,f,f,f,f,f,f,f,f,f,f,f,f,f,f,f,t,f,f,f,f,f,f,f,t,f,f,f,f,f,f,f,f,f,f,f,sport
f,f,f,t,t,f,f,f,f,f,t,f,f,t,f,f,f,f,f,t,f,f,f,f,t,f,f,f,f,f,f,f,t,f,f,f,f,f,f,f,t,f,f,t,t,f,f,f,f,t,f,f,f,f,f,f,t,t,f,f,f,f,f,f,f,f,f,f,f,f,f,f,f,f,f,f,f,f,f,f,f,f,f,f,f,f,f,f,f,f,f,f,f,f,f,f,f,f,f,f,f,f,f,f,t,f,f,f,f,f,f,f,t,f,f,f,f,f,f,f,f,f,f,f,sport
f,f,f,t,t,f,f,f,f,f,t,f,f,t,f,f,f,f,f,t,f,f,f,f,t,f,f,f,f,f,f,f,t,f,f,f,t,f,f,f,t,f,f,t,t,f,f,f,f,t,f,f,f,f,t,f,t,t,f,f,f,f,f,f,f,f,f,f,f,f,f,f,f,f,f,f,f,f,f,f,f,f,f,f,f,f,f,f,f,f,f,f,f,f,f,f,f,f,f,f,f,f,f,f,t,f,f,f,f,f,f,f,t,f,f,f,f,f,f,f,f,f,f,f,sport
f,t,f,f,f,f,f,t,f,f,f,t,f,f,f,f,t,f,f,f,f,f,f,f,f,f,f,f,t,f,f,f,f,f,t,f,f,t,f,t,f,f,f,f,f,f,f,f,t,f,t,f,f,f,f,f,f,f,t,f,f,t,f,f,f,f,f,t,t,f,f,f,f,t,f,f,f,f,f,f,t,t,f,f,f,f,f,f,t,f,f,f,f,f,f,f,t,f,f,f,f,f,f,f,t,t,f,t,f,f,f,t,t,f,f,t,f,f,f,t,f,f,f,f,food
f,t,t,f,f,f,f,t,f,f,f,t,f,f,f,f,f,f,f,f,f,f,f,f,f,f,f,f,f,f,f,f,f,f,t,f,f,f,f,t,f,f,t,f,f,f,f,f,f,f,t,t,f,f,f,f,f,f,t,f,t,t,f,f,f,f,f,f,f,f,f,f,f,f,f,f,f,f,f,f,t,f,f,f,f,f,f,f,t,f,f,f,f,f,f,f,t,f,t,f,f,f,f,f,t,f,t,f,f,f,f,f,t,f,f,t,f,f,f,t,f,f,f,f,food
f,t,f,f,f,f,f,f,f,f,f,t,f,f,f,f,f,t,f,f,f,f,f,f,f,f,f,f,f,f,f,f,f,t,t,f,f,f,f,f,f,f,t,f,f,f,f,f,f,f,t,f,f,f,f,f,f,f,f,f,t,t,f,f,f,f,f,f,f,f,f,f,f,f,f,f,f,t,f,f,f,f,f,f,f,f,f,f,f,f,f,f,f,f,f,f,f,f,t,f,f,f,f,f,f,f,t,f,f,f,f,t,t,f,f,t,f,f,f,f,f,f,f,f,food
f,t,f,f,f,f,f,f,f,f,f,t,f,f,f,t,t,f,f,f,f,f,f,f,f,f,f,f,t,t,f,f,f,t,t,f,f,t,f,f,f,f,t,f,f,f,t,f,f,f,t,f,f,f,f,f,f,f,f,t,t,t,f,f,f,f,f,t,f,f,f,f,f,t,f,f,f,f,f,f,t,t,f,f,f,f,f,f,t,f,f,f,f,f,t,f,f,f,f,f,f,f,t,f,t,f,f,t,f,f,f,t,t,f,f,t,f,f,f,t,f,f,f,f,food
f,t,f,f,f,f,f,f,f,f,f,f,f,f,f,f,f,f,f,f,f,f,f,f,f,f,f,f,f,f,f,f,f,f,t,f,f,f,f,f,f,f,f,f,f,f,f,f,f,f,f,f,f,f,f,f,f,f,f,f,f,t,f,f,f,f,f,t,f,f,f,f,f,f,f,f,f,f,f,f,f,t,f,f,f,f,f,f,f,f,f,f,f,f,f,f,f,f,f,f,f,f,f,f,f,f,f,f,f,f,f,t,f,f,f,f,f,f,f,f,f,f,f,f,food
f,t,f,f,f,f,f,f,f,f,f,t,f,f,f,f,f,f,f,f,f,f,f,f,f,f,f,f,f,f,f,f,f,f,t,f,f,f,f,f,f,f,f,f,f,f,f,f,f,f,t,f,f,f,f,f,f,f,f,f,f,t,f,f,f,f,f,f,f,f,f,f,f,f,f,f,f,f,f,f,t,f,f,f,f,f,f,f,t,f,f,f,f,f,f,f,f,f,f,f,f,f,f,f,f,t,f,f,f,f,f,t,t,f,f,t,f,f,f,t,f,f,f,f,food
f,t,f,f,f,f,f,f,f,f,f,f,f,f,f,f,f,f,f,f,f,f,f,f,f,f,f,f,f,t,f,f,f,f,t,f,f,f,f,f,f,f,t,f,f,f,f,f,f,f,t,f,f,f,f,f,f,f,f,f,t,t,f,f,f,f,f,f,f,f,f,f,f,f,f,t,t,t,f,f,f,f,t,t,t,t,f,t,f,f,t,f,f,t,f,f,f,f,f,f,f,f,f,f,f,f,f,t,f,f,f,t,t,f,f,f,f,f,f,t,f,f,f,f,food
f,f,f,f,f,f,f,f,f,f,f,f,f,t,f,f,f,f,f,f,f,f,f,f,f,f,f,f,f,f,f,t,f,f,f,f,f,f,f,f,f,f,f,f,f,f,f,f,f,f,f,f,f,f,f,f,f,f,f,f,f,f,f,f,f,f,f,f,f,f,f,f,f,f,f,f,f,f,f,f,f,f,f,f,f,f,f,f,f,f,f,f,f,f,f,f,f,f,f,f,f,f,f,f,f,f,f,f,f,f,f,f,t,f,f,f,f,f,f,f,f,f,f,f,food
f,f,f,f,f,f,f,f,f,f,f,f,f,f,f,f,f,f,f,f,f,f,f,f,f,f,f,f,f,f,f,f,f,f,f,f,f,f,f,f,f,f,f,f,f,f,f,f,f,f,f,f,f,f,f,f,f,f,f,f,f,f,f,f,f,f,f,f,f,f,f,f,f,f,f,f,f,f,f,f,f,f,f,f,f,f,f,f,f,f,f,f,f,f,f,f,f,f,f,f,t,f,f,f,f,f,f,t,f,f,f,f,f,f,f,f,f,f,f,f,f,f,f,f,food
f,f,f,f,f,f,f,f,f,f,f,f,f,f,f,f,f,f,f,f,f,f,f,f,f,f,f,f,f,f,f,f,f,f,f,f,f,f,f,f,f,f,f,f,f,f,f,f,f,f,f,f,f,f,f,f,f,f,f,f,f,f,f,f,f,f,f,f,f,f,f,f,f,f,f,f,f,f,f,f,f,f,f,f,f,f,f,f,f,f,f,f,f,f,f,f,f,f,f,f,f,f,f,f,f,f,f,f,f,f,f,f,t,f,f,f,f,f,f,f,f,f,f,f,food
f,f,f,f,f,f,f,f,f,f,f,f,f,f,f,f,f,f,f,f,f,f,f,f,f,f,f,f,f,f,f,f,f,f,f,f,f,f,f,f,f,f,f,f,f,f,f,f,f,f,f,f,f,f,f,f,f,f,f,f,f,f,f,f,f,f,f,f,f,f,f,f,f,f,f,f,f,f,f,f,f,f,f,f,f,f,f,f,f,f,f,f,f,f,f,f,f,f,f,f,t,f,f,f,f,f,f,f,f,f,f,f,f,f,f,f,f,f,f,f,f,f,f,f,food
f,t,f,f,f,f,f,f,f,f,f,t,f,f,t,f,f,f,f,f,f,f,f,f,f,f,f,f,f,f,f,f,f,t,t,f,f,f,f,t,f,f,f,f,f,f,f,f,f,f,t,f,f,f,f,f,f,f,t,t,f,t,f,t,f,f,f,f,t,f,f,t,f,f,f,f,f,f,f,f,f,f,f,f,f,f,f,f,f,f,f,f,f,f,f,f,f,f,f,f,f,f,f,f,t,f,f,f,f,f,f,t,t,f,f,t,f,f,f,t,f,f,f,f,food
f,t,f,f,f,f,f,f,f,f,f,f,f,t,t,f,f,f,f,f,f,f,f,f,f,f,f,f,f,f,f,f,t,f,f,f,f,f,f,f,f,f,f,f,f,f,f,f,f,f,f,f,f,f,f,f,f,f,f,f,f,f,f,f,f,t,f,f,f,f,t,f,f,f,f,f,f,f,t,f,f,f,f,f,f,f,f,f,f,t,f,t,t,f,f,t,f,f,f,f,f,f,f,f,f,f,f,f,f,f,f,f,t,f,f,f,f,f,f,f,f,f,f,f,food
f,t,f,f,f,f,f,f,f,f,f,f,f,f,f,f,f,f,f,f,f,f,f,f,f,f,f,f,f,f,f,f,f,f,t,f,f,f,f,t,f,f,f,f,f,f,f,f,f,f,f,f,f,f,f,f,f,f,t,f,f,t,f,f,f,f,f,f,f,f,f,f,f,f,f,f,f,f,f,f,f,f,f,f,f,f,f,f,f,f,f,f,f,f,t,f,f,f,f,f,f,f,f,f,f,f,f,f,f,f,f,f,f,f,f,f,f,f,f,t,f,f,f,f,food
f,f,f,f,f,f,f,f,f,f,f,f,f,f,f,f,f,f,f,f,f,f,f,f,f,f,f,f,f,f,f,f,f,f,f,f,f,f,f,f,f,f,f,f,f,f,f,f,f,f,f,f,f,f,f,f,f,f,f,f,f,f,f,f,f,f,f,f,f,f,f,f,f,f,f,f,f,f,f,f,f,f,f,f,f,f,f,f,f,f,f,f,f,f,f,f,f,f,f,f,f,f,f,f,f,f,f,f,f,f,f,f,f,f,f,f,f,f,f,f,f,f,f,f,food
f,t,f,f,f,f,f,f,f,f,f,f,f,t,f,f,f,f,f,f,f,f,f,f,f,f,f,f,f,f,f,f,t,f,t,f,f,f,f,f,f,f,f,f,f,f,f,f,f,f,f,f,f,f,f,f,f,f,f,f,f,t,f,t,f,t,f,f,f,f,t,t,f,f,f,f,t,f,t,f,f,f,t,t,t,t,f,t,f,t,f,t,t,t,f,t,f,f,f,f,f,f,f,f,f,f,t,f,t,f,f,f,t,f,f,t,f,f,f,t,f,f,f,f,food
f,t,f,f,f,f,f,f,f,f,f,f,f,t,f,f,f,f,f,f,f,f,f,f,f,f,f,f,f,t,f,f,f,t,f,f,f,f,f,f,f,f,f,f,f,f,f,f,f,f,f,f,f,f,f,f,f,f,f,f,f,f,f,t,t,f,t,f,f,t,f,t,t,f,t,t,f,f,f,t,f,f,f,f,f,f,t,f,f,f,t,f,f,f,f,f,f,t,f,t,f,t,f,t,f,f,f,f,f,f,f,t,t,f,f,t,f,f,f,t,f,f,f,f,food
f,t,f,f,f,f,f,f,f,f,f,f,f,t,t,f,f,f,f,f,f,f,f,f,f,f,f,f,f,f,f,f,f,t,t,f,f,t,f,t,f,f,f,f,f,f,f,f,f,f,t,f,f,f,f,f,f,f,t,f,f,t,f,t,t,f,t,f,t,t,f,f,f,t,t,f,f,f,f,t,f,f,f,f,f,f,t,f,f,f,f,f,f,f,f,f,f,f,f,t,f,f,t,f,t,f,f,t,f,f,f,t,t,f,f,t,f,f,f,t,f,f,f,f,food
f,f,f,f,f,f,f,f,f,f,f,f,f,f,f,f,f,f,f,f,f,f,f,f,f,f,f,f,f,f,f,f,f,f,f,f,f,f,f,f,f,f,f,f,f,f,f,f,f,f,f,f,f,f,f,f,f,f,f,f,f,f,f,f,f,f,f,f,f,f,f,f,f,f,f,f,f,f,f,f,f,f,f,f,f,f,f,f,f,f,f,f,f,f,f,f,f,f,f,f,f,f,f,f,f,f,f,f,f,f,f,f,f,f,f,f,f,f,f,f,f,f,f,f,food
f,t,f,f,f,f,f,f,f,f,f,f,f,t,t,f,f,f,f,f,f,f,f,f,f,f,f,f,f,f,f,f,t,f,f,f,f,f,f,f,f,f,f,f,f,f,f,f,f,f,f,f,f,f,f,f,f,f,f,f,f,f,f,t,t,t,t,f,f,t,t,t,t,f,t,f,t,f,t,t,f,f,t,t,f,t,t,f,f,f,f,f,f,t,f,t,f,t,f,f,f,t,f,t,f,f,f,f,t,f,f,f,t,f,f,f,f,f,f,f,f,f,f,f,food
f,t,f,f,f,f,t,t,t,f,f,t,f,t,t,t,t,f,f,f,f,f,f,f,f,f,f,f,t,t,f,f,f,t,t,f,f,t,f,t,f,f,t,f,f,f,f,f,t,f,t,f,f,f,f,f,f,f,t,f,t,t,f,f,f,f,f,t,t,f,f,f,f,t,f,f,f,f,f,f,t,t,f,f,f,f,f,f,t,f,f,f,f,f,t,f,f,f,f,f,f,f,f,f,t,f,f,t,f,f,f,t,t,t,f,t,f,t,f,t,t,f,t,f,music
f,f,t,f,f,f,f,t,f,f,f,t,f,f,f,t,t,f,f,f,f,f,f,f,f,f,f,f,t,f,f,f,f,t,f,f,f,t,f,t,f,f,t,f,f,f,f,f,f,f,f,t,f,f,f,f,f,f,t,f,t,f,f,f,f,f,f,f,f,f,f,f,f,t,f,f,f,f,f,f,f,f,f,f,f,f,f,f,f,f,f,f,f,f,t,f,f,f,t,f,f,f,t,f,t,f,f,t,t,f,t,t,t,f,t,t,f,t,t,f,f,t,f,f,music
f,t,f,f,f,f,f,f,f,f,f,t,f,f,f,f,f,f,f,f,f,f,f,f,f,f,f,f,f,f,f,f,f,f,t,f,f,f,f,f,f,f,t,f,f,f,f,f,f,f,f,f,f,f,f,f,f,f,f,f,t,t,f,f,f,f,f,f,f,f,f,f,f,f,f,f,f,f,f,f,f,f,f,f,f,f,f,f,t,f,f,f,f,f,f,f,f,f,f,f,f,f,f,f,f,f,f,f,f,f,f,f,f,t,f,t,t,f,f,t,t,f,f,f,music
f,f,f,f,f,f,f,f,f,f,f,f,f,t,t,f,f,f,f,f,f,f,f,f,f,t,f,t,f,f,f,t,t,t,f,f,f,f,f,f,f,f,f,f,f,f,f,f,f,f,f,f,f,f,f,f,f,f,f,t,f,f,f,f,f,f,f,f,f,f,f,f,f,f,f,f,t,f,f,f,f,f,t,f,t,t,f,t,f,f,f,t,f,f,f,f,f,f,f,f,f,f,t,f,t,f,f,f,f,t,t,f,t,f,f,f,f,f,t,f,f,t,t,t,music
f,f,f,f,t,f,f,f,f,f,t,f,f,t,t,f,f,f,f,t,f,f,f,f,t,f,f,t,f,f,f,t,t,f,f,f,f,f,f,f,t,f,f,f,f,f,f,f,f,t,f,f,f,f,f,f,f,t,f,f,f,f,f,f,f,f,f,f,f,f,f,f,f,f,f,f,f,f,f,f,f,f,f,f,f,f,f,f,f,f,f,f,f,f,f,f,f,f,f,f,f,f,t,f,f,f,f,f,f,t,t,f,t,f,f,f,f,f,t,f,f,t,f,t,music
f,f,f,f,f,f,f,f,f,f,f,f,f,f,f,f,f,f,f,f,f,f,f,f,f,f,f,f,f,f,f,f,f,f,f,f,f,f,f,t,f,f,f,f,f,f,f,f,f,f,t,f,f,f,f,f,f,f,t,f,f,f,f,f,f,f,f,f,f,f,f,f,f,f,f,f,f,f,f,f,f,f,f,f,f,f,f,f,f,f,f,f,f,f,f,f,f,f,f,f,f,f,f,f,f,f,f,f,f,f,f,f,t,f,f,f,f,t,f,f,f,f,f,f,music
f,f,f,f,f,f,f,f,f,f,f,t,f,f,f,f,t,f,f,f,f,f,f,f,f,f,f,f,t,f,f,f,f,f,t,f,f,t,f,t,f,f,f,f,f,f,f,f,t,f,f,f,f,f,f,f,f,f,t,f,t,t,f,f,f,f,f,f,t,f,f,f,f,t,f,f,f,f,f,f,f,f,f,f,f,f,f,f,f,f,f,f,f,f,f,f,f,f,f,f,f,f,f,f,f,f,f,f,f,f,f,t,f,f,t,t,f,t,f,f,f,f,f,f,music
f,f,f,f,f,f,f,f,f,f,f,t,f,f,f,f,f,f,f,f,f,f,f,f,f,f,f,f,f,f,f,f,f,f,f,f,f,t,f,t,f,f,f,f,f,f,f,f,t,f,f,f,f,f,f,f,f,f,t,f,f,f,f,f,f,f,f,f,f,f,f,f,f,f,f,f,f,f,f,f,f,f,f,f,f,f,f,f,f,f,f,f,f,f,f,f,f,f,f,f,f,f,f,f,f,f,f,f,f,f,f,t,f,f,f,t,f,t,f,f,f,f,f,f,music
f,f,f,f,f,t,f,f,f,f,f,f,f,t,t,f,t,f,f,f,f,f,f,f,f,t,f,t,t,f,f,t,t,t,f,f,f,f,f,t,f,f,f,f,f,f,f,f,f,f,t,f,f,f,f,f,f,f,t,t,f,f,f,f,f,f,f,f,f,f,f,f,f,t,f,f,f,f,f,f,f,f,f,f,f,f,f,f,f,f,f,f,f,f,f,f,f,f,f,f,f,f,t,f,t,f,f,f,f,t,t,t,t,f,f,f,f,t,t,f,f,t,t,t,music
f,t,f,f,f,f,f,f,f,f,f,t,f,f,f,f,f,f,f,f,f,f,f,f,f,f,f,f,f,f,f,f,f,f,t,f,f,t,f,t,f,f,f,f,f,f,f,f,t,f,f,f,f,f,f,f,f,f,t,f,t,f,f,f,f,f,f,f,f,f,f,f,f,f,f,f,f,f,f,f,t,f,f,f,f,f,f,f,t,f,f,f,f,f,f,f,f,f,f,f,f,f,f,f,f,f,f,f,f,f,f,f,f,f,f,t,f,f,f,t,f,f,f,f,music
f,t,f,f,f,f,f,f,f,f,f,t,f,t,t,f,f,f,f,f,f,f,f,f,f,f,f,f,f,f,f,f,f,t,t,f,f,t,f,f,f,f,f,f,f,f,f,f,t,f,f,f,f,f,f,f,f,f,f,f,f,t,f,f,f,f,f,f,f,f,f,f,f,f,f,f,f,f,f,f,f,f,f,f,f,f,f,f,f,f,f,f,f,f,f,f,f,f,f,f,f,f,t,f,f,f,f,t,t,f,t,t,t,f,f,f,f,f,t,f,f,t,f,f,music
f,t,f,f,f,f,f,f,f,f,f,t,f,f,f,f,f,f,f,f,f,f,f,f,f,f,f,f,f,f,f,f,f,f,t,f,f,t,f,t,f,f,t,f,f,f,f,f,t,f,f,t,f,f,f,f,f,f,t,f,t,t,f,f,f,f,f,f,f,f,f,f,f,f,f,f,f,f,f,f,f,f,f,f,f,f,f,f,f,f,f,f,f,f,f,f,f,f,f,f,f,f,f,f,f,f,f,f,f,f,f,f,f,f,f,t,f,t,f,t,f,f,f,f,music
f,f,f,f,f,f,f,f,f,f,f,f,f,f,f,f,f,f,f,f,f,f,f,f,f,f,f,f,f,t,f,f,f,f,f,f,f,f,f,t,f,f,t,f,f,f,t,f,f,f,f,t,f,f,f,f,f,f,t,f,t,f,f,f,f,f,f,f,f,f,f,f,f,f,f,f,f,f,f,f,f,f,f,f,f,f,f,f,f,f,f,f,f,f,t,f,f,f,f,f,f,f,t,f,f,f,f,f,f,f,t,f,t,f,f,t,t,f,t,f,f,t,f,f,music
f,f,f,f,t,f,f,f,f,f,t,f,f,t,t,f,f,f,f,t,f,f,f,f,f,f,f,f,t,f,f,f,t,f,f,f,f,f,f,f,t,f,f,t,t,f,f,f,f,t,t,f,f,f,f,f,f,t,f,f,f,f,f,f,f,f,f,f,f,f,f,f,f,f,f,f,f,f,f,f,f,f,f,f,f,f,f,f,f,f,f,f,f,f,f,f,f,f,f,f,f,f,t,f,t,f,f,t,t,t,t,t,t,f,f,f,f,f,t,f,f,t,f,f,music
f,t,f,f,f,f,f,f,f,f,f,f,f,t,f,f,f,f,f,f,f,f,f,f,f,f,f,f,f,f,f,f,f,f,t,f,f,f,f,t,f,f,t,f,f,f,f,f,f,f,t,t,f,f,f,f,f,f,t,f,t,t,f,f,f,f,f,f,f,f,f,f,f,f,f,f,f,f,f,f,f,f,f,f,f,f,f,f,f,f,f,f,f,f,f,f,f,f,f,f,f,f,t,f,f,f,f,t,f,f,t,f,t,t,f,f,t,f,t,t,t,t,t,t,music
f,t,f,f,f,f,f,f,f,f,f,f,f,t,f,f,f,t,f,f,f,f,f,f,f,f,f,f,f,f,f,f,f,f,f,f,f,f,f,t,f,f,t,f,f,f,f,f,f,f,t,t,f,f,f,f,f,f,t,f,t,f,f,f,f,f,f,f,f,f,f,f,f,t,f,f,f,f,f,f,f,f,f,f,f,f,f,f,f,f,f,f,f,f,f,f,f,f,f,f,f,f,t,f,f,f,f,f,f,f,t,f,t,t,t,f,t,f,t,t,t,t,t,t,music
f,f,f,f,f,f,f,f,f,f,f,f,f,t,f,t,f,t,f,f,f,f,f,f,f,f,f,f,f,f,f,f,t,t,f,f,f,t,f,t,f,f,t,f,f,f,f,f,f,f,f,f,f,f,f,f,f,f,t,f,t,f,f,f,f,f,f,f,f,f,f,f,f,f,f,f,f,f,f,f,f,f,f,f,f,f,f,f,f,f,f,f,f,f,f,f,f,f,f,f,f,f,f,f,f,f,f,f,f,f,f,f,t,t,t,f,f,f,f,f,t,f,f,f,music
f,f,f,f,f,f,f,f,f,f,f,f,f,f,f,f,f,f,f,f,f,f,f,f,f,f,f,f,f,f,f,f,f,f,f,f,f,f,f,f,f,f,f,f,f,f,f,f,f,f,f,f,f,f,f,f,f,f,f,f,f,f,f,f,f,f,f,f,f,f,f,f,f,f,f,f,f,f,f,f,f,f,f,f,f,f,f,f,f,f,f,f,f,f,f,f,f,f,f,f,t,f,f,f,f,f,f,f,f,f,f,f,f,f,f,f,f,f,f,f,f,f,f,f,music
f,f,f,f,f,f,f,f,f,f,f,f,f,f,f,t,f,f,f,f,f,f,f,f,f,f,f,f,f,t,f,f,f,t,f,f,f,t,f,t,f,f,t,f,f,f,t,f,t,f,f,t,f,f,f,f,f,f,t,f,t,f,f,f,f,f,f,f,f,f,f,f,f,f,f,f,f,f,f,f,f,f,f,f,f,f,f,f,f,f,f,f,f,f,t,f,f,f,f,f,f,f,f,f,f,f,f,f,f,t,f,t,f,t,t,f,t,f,f,f,t,f,f,f,music
f,f,f,f,f,f,f,f,f,f,f,f,f,f,f,f,f,f,f,f,f,f,f,f,f,f,f,f,f,f,f,f,f,f,f,f,f,f,f,f,f,f,f,f,f,f,f,f,f,f,f,t,f,f,f,f,f,f,f,f,f,f,f,f,f,f,f,f,f,f,f,f,f,f,f,f,f,t,f,f,f,f,f,f,f,f,f,f,f,f,f,f,f,f,f,f,f,f,f,f,f,f,f,f,f,f,f,f,f,f,f,f,t,f,f,f,f,f,f,f,f,f,f,f,music
